<?xml version="1.0" encoding="UTF-8" standalone="no"?>
<svg width="216px" height="216px" viewBox="0 0 216 216" version="1.1" xmlns="http://www.w3.org/2000/svg" xmlns:xlink="http://www.w3.org/1999/xlink" xmlns:sketch="http://www.bohemiancoding.com/sketch/ns">
    <!-- Generator: Sketch 3.4.2 (15855) - http://www.bohemiancoding.com/sketch -->
    <title>Rectangle 94 Copy 9 + ACHIEVEMENTS + 12 + School Copy 7</title>
    <desc>Created with Sketch.</desc>
    <defs></defs>
    <g id="Def-Desktop" stroke="none" stroke-width="1" fill="none" fill-rule="evenodd" sketch:type="MSPage">
        <g id="Dashboard" sketch:type="MSArtboardGroup" transform="translate(-989.000000, -1301.000000)">
            <g id="Rectangle-94-Copy-9-+-ACHIEVEMENTS-+-12-+-School-Copy-7" sketch:type="MSLayerGroup" transform="translate(989.000000, 1301.000000)">
                <rect id="Rectangle-94-Copy-9" fill="#F2F8FA" sketch:type="MSShapeGroup" x="0" y="0" width="216" height="216" rx="1"></rect>
                <path d="M60.1875,36 L59.1181641,33.0263672 L55.0239258,33.0263672 L53.9765625,36 L52.1308594,36 L56.137207,25.2480469 L58.0415039,25.2480469 L62.0478516,36 L60.1875,36 Z M58.6567383,31.5175781 L57.6533203,28.6025391 C57.5800778,28.4072256 57.4787604,28.0996115 57.3493652,27.6796875 C57.2199701,27.2597635 57.1308596,26.9521494 57.0820312,26.7568359 C56.9501947,27.3574249 56.7573255,28.0141566 56.503418,28.7270508 L55.5366211,31.5175781 L58.6567383,31.5175781 Z M67.7167969,26.6396484 C66.7109325,26.6396484 65.9199248,26.9960902 65.34375,27.7089844 C64.7675752,28.4218786 64.4794922,29.4057554 64.4794922,30.6606445 C64.4794922,31.9741277 64.756589,32.9677701 65.310791,33.6416016 C65.864993,34.3154331 66.6669869,34.6523438 67.7167969,34.6523438 C68.1709007,34.6523438 68.6103494,34.6071782 69.0351562,34.5168457 C69.4599631,34.4265132 69.9018532,34.3105476 70.3608398,34.1689453 L70.3608398,35.6704102 C69.5209919,35.9877946 68.568853,36.1464844 67.5043945,36.1464844 C65.9370039,36.1464844 64.7334026,35.6716356 63.8935547,34.7219238 C63.0537067,33.772212 62.6337891,32.4135831 62.6337891,30.6459961 C62.6337891,29.5327093 62.8376444,28.5585979 63.2453613,27.7236328 C63.6530782,26.8886677 64.2426719,26.2490257 65.0141602,25.8046875 C65.7856484,25.3603493 66.691401,25.1381836 67.7314453,25.1381836 C68.8252008,25.1381836 69.8359329,25.3676735 70.7636719,25.8266602 L70.1337891,27.2841797 C69.7724591,27.1132804 69.3903829,26.9631354 68.9875488,26.8337402 C68.5847148,26.7043451 68.161135,26.6396484 67.7167969,26.6396484 L67.7167969,26.6396484 Z M81.112793,36 L79.3549805,36 L79.3549805,31.1733398 L74.418457,31.1733398 L74.418457,36 L72.6679688,36 L72.6679688,25.2919922 L74.418457,25.2919922 L74.418457,29.671875 L79.3549805,29.671875 L79.3549805,25.2919922 L81.112793,25.2919922 L81.112793,36 Z M83.9326172,36 L83.9326172,25.2919922 L85.6831055,25.2919922 L85.6831055,36 L83.9326172,36 Z M94.5673828,36 L88.5102539,36 L88.5102539,25.2919922 L94.5673828,25.2919922 L94.5673828,26.7714844 L90.2607422,26.7714844 L90.2607422,29.6865234 L94.2963867,29.6865234 L94.2963867,31.1513672 L90.2607422,31.1513672 L90.2607422,34.5131836 L94.5673828,34.5131836 L94.5673828,36 Z M102.98291,25.2919922 L104.799316,25.2919922 L101.049316,36 L99.2036133,36 L95.4682617,25.2919922 L97.2700195,25.2919922 L99.5039062,31.949707 C99.6210943,32.2670914 99.7456048,32.6760229 99.8774414,33.1765137 C100.009278,33.6770045 100.094726,34.0493152 100.133789,34.293457 C100.197266,33.9223614 100.294921,33.4926782 100.426758,33.0043945 C100.558594,32.5161108 100.666015,32.1547863 100.749023,31.9204102 L102.98291,25.2919922 Z M112.27002,36 L106.212891,36 L106.212891,25.2919922 L112.27002,25.2919922 L112.27002,26.7714844 L107.963379,26.7714844 L107.963379,29.6865234 L111.999023,29.6865234 L111.999023,31.1513672 L107.963379,31.1513672 L107.963379,34.5131836 L112.27002,34.5131836 L112.27002,36 Z M119.213379,36 L116.10791,27.0571289 L116.049316,27.0571289 C116.132325,28.3852605 116.173828,29.6303653 116.173828,30.7924805 L116.173828,36 L114.584473,36 L114.584473,25.2919922 L117.052734,25.2919922 L120.026367,33.8100586 L120.070312,33.8100586 L123.131836,25.2919922 L125.607422,25.2919922 L125.607422,36 L123.922852,36 L123.922852,30.7045898 C123.922852,30.1723606 123.936279,29.4790082 123.963135,28.6245117 C123.98999,27.7700153 124.013183,27.2524423 124.032715,27.0717773 L123.974121,27.0717773 L120.758789,36 L119.213379,36 Z M134.484375,36 L128.427246,36 L128.427246,25.2919922 L134.484375,25.2919922 L134.484375,26.7714844 L130.177734,26.7714844 L130.177734,29.6865234 L134.213379,29.6865234 L134.213379,31.1513672 L130.177734,31.1513672 L130.177734,34.5131836 L134.484375,34.5131836 L134.484375,36 Z M145.719727,36 L143.57373,36 L138.307617,27.4672852 L138.249023,27.4672852 L138.285645,27.9433594 C138.354004,28.851567 138.388184,29.6816369 138.388184,30.4335938 L138.388184,36 L136.798828,36 L136.798828,25.2919922 L138.922852,25.2919922 L144.174316,33.7807617 L144.218262,33.7807617 C144.208496,33.6684565 144.188965,33.259525 144.159668,32.5539551 C144.130371,31.8483851 144.115723,31.2978535 144.115723,30.9023438 L144.115723,25.2919922 L145.719727,25.2919922 L145.719727,36 Z M152.245605,36 L150.495117,36 L150.495117,26.793457 L147.345703,26.793457 L147.345703,25.2919922 L155.39502,25.2919922 L155.39502,26.793457 L152.245605,26.793457 L152.245605,36 Z M163.209961,33.0922852 C163.209961,34.0444384 162.865726,34.7915012 162.177246,35.3334961 C161.488766,35.875491 160.539069,36.1464844 159.328125,36.1464844 C158.117181,36.1464844 157.12598,35.958498 156.354492,35.5825195 L156.354492,33.9272461 C156.842776,34.1567394 157.36157,34.3374017 157.910889,34.4692383 C158.460208,34.6010749 158.971677,34.6669922 159.445312,34.6669922 C160.138675,34.6669922 160.650145,34.5351576 160.979736,34.2714844 C161.309328,34.0078112 161.474121,33.6538108 161.474121,33.2094727 C161.474121,32.80908 161.322755,32.469728 161.02002,32.1914062 C160.717284,31.9130845 160.09229,31.583498 159.14502,31.2026367 C158.168452,30.8071269 157.479982,30.3554713 157.07959,29.8476562 C156.679197,29.3398412 156.479004,28.7294958 156.479004,28.0166016 C156.479004,27.1230424 156.796384,26.4199244 157.431152,25.9072266 C158.065921,25.3945287 158.917963,25.1381836 159.987305,25.1381836 C161.0127,25.1381836 162.033198,25.3627907 163.048828,25.8120117 L162.492188,27.2402344 C161.540034,26.8398417 160.690433,26.6396484 159.943359,26.6396484 C159.37695,26.6396484 158.947267,26.7629382 158.654297,27.0095215 C158.361327,27.2561047 158.214844,27.5820292 158.214844,27.9873047 C158.214844,28.2656264 158.273437,28.5036611 158.390625,28.701416 C158.507813,28.8991709 158.700682,29.0859366 158.969238,29.2617188 C159.237794,29.4375009 159.721188,29.6694322 160.419434,29.9575195 C161.20557,30.2846696 161.781736,30.5898423 162.147949,30.8730469 C162.514162,31.1562514 162.782714,31.4760724 162.953613,31.8325195 C163.124513,32.1889666 163.209961,32.6088843 163.209961,33.0922852 L163.209961,33.0922852 Z M47.6813965,49.2919922 L50.8601074,49.2919922 C52.3347242,49.2919922 53.4003873,49.5068338 54.0571289,49.9365234 C54.7138705,50.3662131 55.0422363,51.0449172 55.0422363,51.9726562 C55.0422363,52.5976594 54.8811051,53.1176737 54.5588379,53.5327148 C54.2365707,53.947756 53.7727081,54.2089838 53.1672363,54.3164062 L53.1672363,54.3896484 C53.9191932,54.5312507 54.4721662,54.8107889 54.8261719,55.2282715 C55.1801776,55.645754 55.3571777,56.2109339 55.3571777,56.9238281 C55.3571777,57.885747 55.0214877,58.6389133 54.3500977,59.1833496 C53.6787076,59.7277859 52.744879,60 51.548584,60 L47.6813965,60 L47.6813965,49.2919922 Z M49.4318848,53.7158203 L51.1164551,53.7158203 C51.8488806,53.7158203 52.3835432,53.5998547 52.720459,53.3679199 C53.0573747,53.1359852 53.2258301,52.741702 53.2258301,52.1850586 C53.2258301,51.6821264 53.0439471,51.3183605 52.6801758,51.09375 C52.3164044,50.8691395 51.7390176,50.7568359 50.947998,50.7568359 L49.4318848,50.7568359 L49.4318848,53.7158203 Z M49.4318848,55.1367188 L49.4318848,58.527832 L51.2922363,58.527832 C52.0246619,58.527832 52.5776349,58.3874526 52.9511719,58.1066895 C53.3247089,57.8259263 53.5114746,57.3828155 53.5114746,56.7773438 C53.5114746,56.2207003 53.3210468,55.8081068 52.9401855,55.5395508 C52.5593243,55.2709948 51.9807168,55.1367188 51.2043457,55.1367188 L49.4318848,55.1367188 Z M63.6408691,60 L57.5837402,60 L57.5837402,49.2919922 L63.6408691,49.2919922 L63.6408691,50.7714844 L59.3342285,50.7714844 L59.3342285,53.6865234 L63.369873,53.6865234 L63.369873,55.1513672 L59.3342285,55.1513672 L59.3342285,58.5131836 L63.6408691,58.5131836 L63.6408691,60 Z M74.4001465,60 L72.642334,60 L72.642334,55.1733398 L67.7058105,55.1733398 L67.7058105,60 L65.9553223,60 L65.9553223,49.2919922 L67.7058105,49.2919922 L67.7058105,53.671875 L72.642334,53.671875 L72.642334,49.2919922 L74.4001465,49.2919922 L74.4001465,60 Z M83.8630371,60 L82.7937012,57.0263672 L78.6994629,57.0263672 L77.6520996,60 L75.8063965,60 L79.8127441,49.2480469 L81.717041,49.2480469 L85.7233887,60 L83.8630371,60 Z M82.3322754,55.5175781 L81.3288574,52.6025391 C81.2556149,52.4072256 81.1542975,52.0996115 81.0249023,51.6796875 C80.8955072,51.2597635 80.8063967,50.9521494 80.7575684,50.7568359 C80.6257318,51.3574249 80.4328626,52.0141566 80.1789551,52.7270508 L79.2121582,55.5175781 L82.3322754,55.5175781 Z M93.7800293,60 L92.7106934,57.0263672 L88.6164551,57.0263672 L87.5690918,60 L85.7233887,60 L89.7297363,49.2480469 L91.6340332,49.2480469 L95.6403809,60 L93.7800293,60 Z M92.2492676,55.5175781 L91.2458496,52.6025391 C91.1726071,52.4072256 91.0712897,52.0996115 90.9418945,51.6796875 C90.8124994,51.2597635 90.7233889,50.9521494 90.6745605,50.7568359 C90.542724,51.3574249 90.3498548,52.0141566 90.0959473,52.7270508 L89.1291504,55.5175781 L92.2492676,55.5175781 Z M97.0539551,60 L97.0539551,49.2919922 L98.8044434,49.2919922 L98.8044434,58.4985352 L103.338135,58.4985352 L103.338135,60 L97.0539551,60 Z M113.892334,54.543457 C113.892334,56.311044 113.401616,57.6623488 112.420166,58.5974121 C111.438716,59.5324754 110.025156,60 108.179443,60 L105.183838,60 L105.183838,49.2919922 L108.494385,49.2919922 C110.198495,49.2919922 111.524165,49.750972 112.471436,50.6689453 C113.418706,51.5869187 113.892334,52.8784096 113.892334,54.543457 L113.892334,54.543457 Z M112.046631,54.6020508 C112.046631,52.0385614 110.847912,50.7568359 108.450439,50.7568359 L106.934326,50.7568359 L106.934326,58.527832 L108.179443,58.527832 C110.757581,58.527832 112.046631,57.2192514 112.046631,54.6020508 L112.046631,54.6020508 Z M123.787354,60 L122.036865,60 L122.036865,50.793457 L118.887451,50.793457 L118.887451,49.2919922 L126.936768,49.2919922 L126.936768,50.793457 L123.787354,50.793457 L123.787354,60 Z M137.783936,54.6313477 C137.783936,56.3745204 137.348149,57.7294874 136.476562,58.6962891 C135.604976,59.6630908 134.370858,60.1464844 132.77417,60.1464844 C131.157951,60.1464844 129.916508,59.6667528 129.049805,58.7072754 C128.183101,57.7477979 127.749756,56.3842862 127.749756,54.6166992 C127.749756,52.8491123 128.185543,51.491704 129.057129,50.5444336 C129.928715,49.5971632 131.172599,49.1235352 132.788818,49.1235352 C134.380623,49.1235352 135.61108,49.6044874 136.480225,50.5664062 C137.34937,51.5283251 137.783936,52.883292 137.783936,54.6313477 L137.783936,54.6313477 Z M129.610107,54.6313477 C129.610107,55.9497136 129.876218,56.9494595 130.408447,57.6306152 C130.940676,58.311771 131.729243,58.6523438 132.77417,58.6523438 C133.814214,58.6523438 134.599118,58.3154331 135.128906,57.6416016 C135.658694,56.9677701 135.923584,55.9643621 135.923584,54.6313477 C135.923584,53.3178645 135.661135,52.3217807 135.13623,51.6430664 C134.611326,50.9643521 133.828863,50.625 132.788818,50.625 C131.739008,50.625 130.94678,50.9643521 130.412109,51.6430664 C129.877439,52.3217807 129.610107,53.3178645 129.610107,54.6313477 L129.610107,54.6313477 Z M143.335693,60 L141.585205,60 L141.585205,50.793457 L138.435791,50.793457 L138.435791,49.2919922 L146.485107,49.2919922 L146.485107,50.793457 L143.335693,50.793457 L143.335693,60 Z M153.721436,60 L152.6521,57.0263672 L148.557861,57.0263672 L147.510498,60 L145.664795,60 L149.671143,49.2480469 L151.575439,49.2480469 L155.581787,60 L153.721436,60 Z M152.190674,55.5175781 L151.187256,52.6025391 C151.114013,52.4072256 151.012696,52.0996115 150.883301,51.6796875 C150.753906,51.2597635 150.664795,50.9521494 150.615967,50.7568359 C150.48413,51.3574249 150.291261,52.0141566 150.037354,52.7270508 L149.070557,55.5175781 L152.190674,55.5175781 Z M163.638428,60 L162.569092,57.0263672 L158.474854,57.0263672 L157.42749,60 L155.581787,60 L159.588135,49.2480469 L161.492432,49.2480469 L165.498779,60 L163.638428,60 Z M162.107666,55.5175781 L161.104248,52.6025391 C161.031005,52.4072256 160.929688,52.0996115 160.800293,51.6796875 C160.670898,51.2597635 160.581787,50.9521494 160.532959,50.7568359 C160.401122,51.3574249 160.208253,52.0141566 159.954346,52.7270508 L158.987549,55.5175781 L162.107666,55.5175781 Z M166.912354,60 L166.912354,49.2919922 L168.662842,49.2919922 L168.662842,58.4985352 L173.196533,58.4985352 L173.196533,60 L166.912354,60 Z" id="ACHIEVEMENTS" fill="#465E63" sketch:type="MSShapeGroup"></path>
                <g id="12-+-School-Copy-7" transform="translate(34.000000, 94.000000)" fill="#465E63" sketch:type="MSShapeGroup">
                    <path d="M62.8227539,27 L60.9257812,27 L64.9907227,7.93994141 C65.2195649,6.83186295 65.6651985,5.06739492 66.3276367,2.64648438 C65.8217748,3.08008029 65.3671081,3.44742688 64.963623,3.74853516 C64.560138,4.04964343 63.0576302,5.01919754 60.4560547,6.65722656 L59.5166016,5.24804688 L66.8515625,0.586914062 L68.4775391,0.586914062 L62.8227539,27 Z M89.9223633,27 L74.2045898,27 L74.6020508,25.1210938 L82.7138672,17.8583984 C85.0986447,15.7265518 86.8089141,14.061448 87.8447266,12.8630371 C88.880539,11.6646262 89.6423315,10.5415091 90.130127,9.49365234 C90.6179224,8.44579554 90.8618164,7.36182201 90.8618164,6.24169922 C90.8618164,4.89273414 90.4643594,3.82080476 89.6694336,3.02587891 C88.8745077,2.23095306 87.6881589,1.83349609 86.1103516,1.83349609 C83.9905493,1.83349609 81.9851983,2.61034379 80.0942383,4.1640625 L79.1186523,2.84521484 C81.2866319,1.08674251 83.6593296,0.207519531 86.2368164,0.207519531 C88.3204857,0.207519531 89.9374129,0.719395923 91.0876465,1.74316406 C92.2378801,2.7669322 92.8129883,4.19416402 92.8129883,6.02490234 C92.8129883,7.34977876 92.551028,8.60538144 92.0270996,9.79174805 C91.5031712,10.9781147 90.6510476,12.2517836 89.4707031,13.612793 C88.2903587,14.9738024 86.4174933,16.7984912 83.8520508,19.0869141 L76.9326172,25.1933594 L76.9326172,25.265625 L90.2294922,25.265625 L89.9223633,27 Z" id="12"></path>
                    <g id="School-Copy-7" transform="translate(0.000000, 66.000000)">
                        <path d="M1.63842773,12 L0.869384766,12 L2.51733398,4.27294922 C2.61010789,3.82372822 2.79077014,3.10840334 3.05932617,2.12695312 C2.85424702,2.30273525 2.66992269,2.45165955 2.50634766,2.57373047 C2.34277262,2.69580139 1.73364785,3.08886387 0.678955078,3.75292969 L0.298095703,3.18164062 L3.27172852,1.29199219 L3.9309082,1.29199219 L1.63842773,12 Z M12.6247559,12 L6.25268555,12 L6.41381836,11.2382812 L9.70239258,8.29394531 C10.6691943,7.42968318 11.3625467,6.7546411 11.7824707,6.26879883 C12.2023947,5.78295656 12.5112295,5.32763884 12.7089844,4.90283203 C12.9067393,4.47802522 13.0056152,4.03857649 13.0056152,3.58447266 C13.0056152,3.03759492 12.844484,2.60302896 12.5222168,2.28076172 C12.1999496,1.95849448 11.7189973,1.79736328 11.0793457,1.79736328 C10.2199664,1.79736328 9.40698625,2.11230154 8.64038086,2.7421875 L8.24487305,2.20751953 C9.12378369,1.49462534 10.0856881,1.13818359 11.1306152,1.13818359 C11.975346,1.13818359 12.630857,1.34570105 13.097168,1.76074219 C13.5634789,2.17578333 13.7966309,2.75439082 13.7966309,3.49658203 C13.7966309,4.03369409 13.6904307,4.5427222 13.4780273,5.02368164 C13.2656239,5.50464108 12.9201684,6.02099333 12.4416504,6.57275391 C11.9631324,7.12451448 11.2038626,7.86425317 10.1638184,8.79199219 L7.35864258,11.2675781 L7.35864258,11.296875 L12.7492676,11.296875 L12.6247559,12 Z M22.9226074,3.9140625 C24.0554256,3.9140625 24.7365711,4.44872512 24.9660645,5.51806641 L25.0100098,5.51806641 L25.4421387,4.03857422 L26.0280762,4.03857422 L24.3508301,12 L23.7502441,12 L24.079834,9.99316406 L24.0358887,9.99316406 C23.6257304,10.6865269 23.169192,11.2187481 22.6662598,11.5898438 C22.1633276,11.9609394 21.5847201,12.1464844 20.9304199,12.1464844 C19.5583427,12.1464844 18.8723145,11.2334076 18.8723145,9.40722656 C18.8723145,8.44530769 19.0554181,7.52734812 19.4216309,6.65332031 C19.7878436,5.7792925 20.2773407,5.10425043 20.8901367,4.62817383 C21.5029328,4.15209723 22.1804162,3.9140625 22.9226074,3.9140625 L22.9226074,3.9140625 Z M21.098877,11.4873047 C21.5334494,11.4873047 21.9667947,11.335939 22.3989258,11.0332031 C22.8310568,10.7304672 23.2192366,10.3251979 23.5634766,9.81738281 C23.9077166,9.30956777 24.1701651,8.74804995 24.3508301,8.1328125 C24.531495,7.51757505 24.6218262,6.99756072 24.6218262,6.57275391 C24.6218262,6.18700979 24.5583502,5.84155426 24.4313965,5.53637695 C24.3044427,5.23119965 24.1164563,4.98950284 23.8674316,4.8112793 C23.618407,4.63305575 23.3083515,4.54394531 22.9372559,4.54394531 C22.3317841,4.54394531 21.7849146,4.74413862 21.2966309,5.14453125 C20.8083472,5.54492388 20.4079605,6.14428312 20.095459,6.94262695 C19.7829574,7.74097079 19.626709,8.53564058 19.626709,9.32666016 C19.626709,10.0688514 19.7487781,10.6145002 19.9929199,10.963623 C20.2370618,11.3127459 20.6057104,11.4873047 21.098877,11.4873047 L21.098877,11.4873047 Z M29.9172363,12.1464844 C29.0676227,12.1464844 28.3974634,11.8767117 27.9067383,11.3371582 C27.4160132,10.7976047 27.1706543,10.0493212 27.1706543,9.09228516 C27.1706543,8.14989763 27.3500959,7.2673381 27.7089844,6.44458008 C28.0678729,5.62182206 28.5524872,4.99438693 29.1628418,4.56225586 C29.7731964,4.13012479 30.4811971,3.9140625 31.2868652,3.9140625 C31.9411654,3.9140625 32.5295384,4.01904192 33.052002,4.22900391 L32.8469238,4.88818359 C32.3244603,4.65869026 31.792239,4.54394531 31.2502441,4.54394531 C30.6203582,4.54394531 30.0527369,4.73193171 29.5473633,5.10791016 C29.0419897,5.4838886 28.6452651,6.02587537 28.3571777,6.73388672 C28.0690904,7.44189807 27.9250488,8.22314026 27.9250488,9.07763672 C27.9250488,9.84912495 28.1044904,10.4436014 28.4633789,10.861084 C28.8222674,11.2785665 29.3312955,11.4873047 29.9904785,11.4873047 C30.3371599,11.4873047 30.6582016,11.4555667 30.9536133,11.3920898 C31.2490249,11.328613 31.5700666,11.2163094 31.916748,11.0551758 L31.916748,11.7290039 C31.350339,12.0073256 30.6838417,12.1464844 29.9172363,12.1464844 L29.9172363,12.1464844 Z M38.5158691,12 L39.6071777,6.93164063 C39.7097173,6.48241963 39.7609863,6.10156406 39.7609863,5.7890625 C39.7609863,5.39843555 39.6547862,5.09326282 39.4423828,4.87353516 C39.2299794,4.6538075 38.9016135,4.54394531 38.4572754,4.54394531 C37.9103977,4.54394531 37.3964868,4.7075179 36.9155273,5.03466797 C36.4345679,5.36181804 36.0292985,5.82079783 35.699707,6.41162109 C35.3701155,7.00244436 35.1174325,7.70067957 34.9416504,8.50634766 L34.1945801,12 L33.4768066,12 L35.9084473,0.603515625 L36.6115723,0.603515625 L35.9816895,3.61376953 C35.7668446,4.59033691 35.6057134,5.27148245 35.498291,5.65722656 L35.5422363,5.65722656 C35.9230976,5.10546599 36.3784153,4.67700348 36.9082031,4.37182617 C37.4379909,4.06664886 37.9982881,3.9140625 38.5891113,3.9140625 C39.1945831,3.9140625 39.6633284,4.07275232 39.9953613,4.39013672 C40.3273942,4.70752112 40.4934082,5.15429399 40.4934082,5.73046875 C40.4934082,6.07226733 40.434815,6.51659883 40.317627,7.06347656 L39.2336426,12 L38.5158691,12 Z M42.5661621,12 L41.8483887,12 L43.5402832,4.03857422 L44.2434082,4.03857422 L42.5661621,12 Z M43.8552246,1.99511719 C43.8552246,1.72656116 43.908935,1.51171956 44.0163574,1.35058594 C44.1237798,1.18945232 44.2702627,1.10888672 44.4558105,1.10888672 C44.7341323,1.10888672 44.873291,1.28466621 44.873291,1.63623047 C44.873291,1.91455217 44.8195806,2.13427654 44.7121582,2.29541016 C44.6047358,2.45654377 44.465577,2.53710938 44.2946777,2.53710938 C44.1530755,2.53710938 44.044434,2.48950243 43.96875,2.39428711 C43.893066,2.29907179 43.8552246,2.16601648 43.8552246,1.99511719 L43.8552246,1.99511719 Z M48.2058105,12.1464844 C47.3610798,12.1464844 46.7019067,11.8791531 46.2282715,11.3444824 C45.7546363,10.8098118 45.5178223,10.0639696 45.5178223,9.10693359 C45.5178223,8.22314011 45.6911604,7.37598062 46.0378418,6.56542969 C46.3845232,5.75487876 46.8618134,5.11035396 47.4697266,4.63183594 C48.0776398,4.15331792 48.7477991,3.9140625 49.4802246,3.9140625 C50.036868,3.9140625 50.4811995,4.06298679 50.8132324,4.36083984 C51.1452653,4.6586929 51.3112793,5.06396228 51.3112793,5.57666016 C51.3112793,6.46045364 50.9121134,7.13427502 50.1137695,7.59814453 C49.3154257,8.06201404 48.1301348,8.29394531 46.5578613,8.29394531 L46.3161621,8.29394531 C46.2868651,8.50879014 46.2722168,8.74804556 46.2722168,9.01171875 C46.2722168,9.81738684 46.4528791,10.4313944 46.814209,10.8537598 C47.1755389,11.2761252 47.6955532,11.4873047 48.3742676,11.4873047 C49.0188021,11.4873047 49.6926234,11.3090838 50.395752,10.9526367 L50.395752,11.6411133 C49.7121548,11.978029 48.9821816,12.1464844 48.2058105,12.1464844 L48.2058105,12.1464844 Z M49.392334,4.54394531 C48.7526823,4.54394531 48.1582059,4.82592491 47.6088867,5.38989258 C47.0595676,5.95386024 46.662843,6.70702654 46.4187012,7.64941406 L46.7775879,7.64941406 C49.3020146,7.64941406 50.564209,6.99024097 50.564209,5.671875 C50.564209,5.34472493 50.4580089,5.07495223 50.2456055,4.86254883 C50.0332021,4.65014542 49.7487811,4.54394531 49.392334,4.54394531 L49.392334,4.54394531 Z M53.2888184,12 L52.0290527,4.03857422 L52.7687988,4.03857422 L53.5598145,9.421875 C53.6867682,10.2275431 53.7673338,10.8476541 53.8015137,11.2822266 L53.845459,11.2822266 C54.0944837,10.7207003 54.4094219,10.0957066 54.7902832,9.40722656 L57.763916,4.03857422 L58.5109863,4.03857422 L54.1164551,12 L53.2888184,12 Z M61.2575684,12.1464844 C60.4128376,12.1464844 59.7536645,11.8791531 59.2800293,11.3444824 C58.8063941,10.8098118 58.5695801,10.0639696 58.5695801,9.10693359 C58.5695801,8.22314011 58.7429182,7.37598062 59.0895996,6.56542969 C59.436281,5.75487876 59.9135712,5.11035396 60.5214844,4.63183594 C61.1293976,4.15331792 61.7995569,3.9140625 62.5319824,3.9140625 C63.0886258,3.9140625 63.5329573,4.06298679 63.8649902,4.36083984 C64.1970231,4.6586929 64.3630371,5.06396228 64.3630371,5.57666016 C64.3630371,6.46045364 63.9638712,7.13427502 63.1655273,7.59814453 C62.3671835,8.06201404 61.1818926,8.29394531 59.6096191,8.29394531 L59.3679199,8.29394531 C59.3386229,8.50879014 59.3239746,8.74804556 59.3239746,9.01171875 C59.3239746,9.81738684 59.5046369,10.4313944 59.8659668,10.8537598 C60.2272967,11.2761252 60.7473111,11.4873047 61.4260254,11.4873047 C62.0705599,11.4873047 62.7443813,11.3090838 63.4475098,10.9526367 L63.4475098,11.6411133 C62.7639126,11.978029 62.0339394,12.1464844 61.2575684,12.1464844 L61.2575684,12.1464844 Z M62.4440918,4.54394531 C61.8044402,4.54394531 61.2099637,4.82592491 60.6606445,5.38989258 C60.1113254,5.95386024 59.7146008,6.70702654 59.470459,7.64941406 L59.8293457,7.64941406 C62.3537724,7.64941406 63.6159668,6.99024097 63.6159668,5.671875 C63.6159668,5.34472493 63.5097667,5.07495223 63.2973633,4.86254883 C63.0849599,4.65014542 62.8005389,4.54394531 62.4440918,4.54394531 L62.4440918,4.54394531 Z M69.8269043,12 L70.9035645,7.06347656 C71.0256354,6.45312195 71.0866699,6.05761809 71.0866699,5.87695312 C71.0866699,4.98827681 70.7106971,4.54394531 69.9587402,4.54394531 C69.4411595,4.54394531 68.9528832,4.70873859 68.4938965,5.03833008 C68.0349098,5.36792157 67.6467301,5.82812205 67.3293457,6.41894531 C67.0119613,7.00976858 66.7678231,7.71044517 66.5969238,8.52099609 L65.864502,12 L65.1467285,12 L66.838623,4.03857422 L67.4245605,4.03857422 L67.1828613,5.57666016 L67.2268066,5.57666016 C67.6174336,5.02489958 68.0605444,4.60986467 68.5561523,4.33154297 C69.0517603,4.05322126 69.5705539,3.9140625 70.1125488,3.9140625 C70.6301295,3.9140625 71.0280748,4.07763508 71.3063965,4.40478516 C71.5847182,4.73193523 71.7312011,5.20800469 71.7458496,5.83300781 L71.7897949,5.83300781 C72.1657734,5.20312185 72.6076635,4.7258317 73.1154785,4.40112305 C73.6232936,4.07641439 74.1652803,3.9140625 74.7414551,3.9140625 C75.312747,3.9140625 75.7582992,4.06420748 76.078125,4.36450195 C76.3979508,4.66479642 76.5578613,5.09570032 76.5578613,5.65722656 C76.5578613,5.79882883 76.5517579,5.93676691 76.5395508,6.07104492 C76.5273437,6.20532294 76.4797367,6.49706807 76.3967285,6.94628906 L75.2834473,12 L74.5510254,12 L75.642334,7.01953125 C75.7644049,6.43359082 75.8254395,6.00390762 75.8254395,5.73046875 C75.8254395,5.35449031 75.72046,5.06274518 75.510498,4.85522461 C75.3005361,4.64770404 75.0100116,4.54394531 74.638916,4.54394531 C73.8723106,4.54394531 73.1948272,4.87963531 72.6064453,5.55102539 C72.0180635,6.22241547 71.6066906,7.10741638 71.3723145,8.20605469 L70.5739746,12 L69.8269043,12 Z M80.8791504,12.1464844 C80.0344196,12.1464844 79.3752465,11.8791531 78.9016113,11.3444824 C78.4279761,10.8098118 78.1911621,10.0639696 78.1911621,9.10693359 C78.1911621,8.22314011 78.3645002,7.37598062 78.7111816,6.56542969 C79.0578631,5.75487876 79.5351532,5.11035396 80.1430664,4.63183594 C80.7509796,4.15331792 81.4211389,3.9140625 82.1535645,3.9140625 C82.7102079,3.9140625 83.1545394,4.06298679 83.4865723,4.36083984 C83.8186052,4.6586929 83.9846191,5.06396228 83.9846191,5.57666016 C83.9846191,6.46045364 83.5854532,7.13427502 82.7871094,7.59814453 C81.9887655,8.06201404 80.8034747,8.29394531 79.2312012,8.29394531 L78.989502,8.29394531 C78.9602049,8.50879014 78.9455566,8.74804556 78.9455566,9.01171875 C78.9455566,9.81738684 79.1262189,10.4313944 79.4875488,10.8537598 C79.8488788,11.2761252 80.3688931,11.4873047 81.0476074,11.4873047 C81.6921419,11.4873047 82.3659633,11.3090838 83.0690918,10.9526367 L83.0690918,11.6411133 C82.3854946,11.978029 81.6555215,12.1464844 80.8791504,12.1464844 L80.8791504,12.1464844 Z M82.0656738,4.54394531 C81.4260222,4.54394531 80.8315457,4.82592491 80.2822266,5.38989258 C79.7329074,5.95386024 79.3361829,6.70702654 79.092041,7.64941406 L79.4509277,7.64941406 C81.9753544,7.64941406 83.2375488,6.99024097 83.2375488,5.671875 C83.2375488,5.34472493 83.1313487,5.07495223 82.9189453,4.86254883 C82.7065419,4.65014542 82.4221209,4.54394531 82.0656738,4.54394531 L82.0656738,4.54394531 Z M89.8366699,12 L90.9279785,6.93164062 C91.0305181,6.48241963 91.0817871,6.10156406 91.0817871,5.7890625 C91.0817871,5.39843555 90.975587,5.09326282 90.7631836,4.87353516 C90.5507802,4.6538075 90.2224143,4.54394531 89.7780762,4.54394531 C89.2311984,4.54394531 88.7172876,4.7075179 88.2363281,5.03466797 C87.7553687,5.36181804 87.3500993,5.81957714 87.0205078,6.40795898 C86.6909163,6.99634083 86.4382333,7.69579673 86.2624512,8.50634766 L85.5153809,12 L84.7976074,12 L86.489502,4.03857422 L87.0900879,4.03857422 L86.8190918,5.65722656 L86.8630371,5.65722656 C87.6638224,4.49511138 88.6794372,3.9140625 89.9099121,3.9140625 C90.5446809,3.9140625 91.0207504,4.07031094 91.3381348,4.3828125 C91.6555192,4.69531406 91.814209,5.14452832 91.814209,5.73046875 C91.814209,6.07226733 91.7556158,6.51659883 91.6384277,7.06347656 L90.5544434,12 L89.8366699,12 Z M97.6955566,4.03857422 L97.5637207,4.63183594 L95.4909668,4.63183594 L94.5021973,9.28271484 C94.3947749,9.7661157 94.3410645,10.1665023 94.3410645,10.4838867 C94.3410645,11.162601 94.6486786,11.5019531 95.263916,11.5019531 C95.5959489,11.5019531 95.967039,11.4384772 96.3771973,11.3115234 L96.3771973,11.9414062 C95.8840307,12.0781257 95.4689958,12.1464844 95.1320801,12.1464844 C94.6486792,12.1464844 94.2751478,12.0134291 94.0114746,11.7473145 C93.7478014,11.4811998 93.6159668,11.0942408 93.6159668,10.5864258 C93.6159668,10.2299787 93.6867669,9.72705403 93.8283691,9.07763672 L94.7731934,4.63183594 L93.4401855,4.63183594 L93.5427246,4.14111328 L94.8903809,4.01660156 L95.6008301,2.16357422 L96.0036621,2.16357422 L95.6008301,4.03857422 L97.6955566,4.03857422 Z M102.346436,9.83935547 C102.346436,10.542484 102.094973,11.1027811 101.592041,11.5202637 C101.089109,11.9377462 100.405522,12.1464844 99.5412598,12.1464844 C98.696529,12.1464844 97.9519075,11.9633807 97.307373,11.597168 L97.307373,10.8134766 C97.668703,11.0380871 98.0422344,11.2114252 98.4279785,11.3334961 C98.8137226,11.455567 99.1750471,11.5166016 99.5119629,11.5166016 C100.185794,11.5166016 100.700926,11.3762221 101.057373,11.095459 C101.41382,10.8146959 101.592041,10.4155299 101.592041,9.89794922 C101.592041,9.69287007 101.5542,9.51220781 101.478516,9.35595703 C101.402832,9.19970625 101.280763,9.04956127 101.112305,8.90551758 C100.943847,8.76147389 100.620364,8.55273574 100.141846,8.27929688 C99.4191858,7.88866992 98.9309095,7.53344886 98.677002,7.21362305 C98.4230944,6.89379723 98.2961426,6.50439683 98.2961426,6.04541016 C98.2961426,5.42040703 98.5366187,4.90893754 99.0175781,4.51098633 C99.4985376,4.11303512 100.132076,3.9140625 100.918213,3.9140625 C101.284426,3.9140625 101.671385,3.95678668 102.079102,4.04223633 C102.486818,4.12768597 102.829833,4.24121023 103.108154,4.3828125 L102.851807,5.02734375 C102.187741,4.71484219 101.543216,4.55859375 100.918213,4.55859375 C100.351804,4.55859375 99.8977068,4.68798699 99.5559082,4.94677734 C99.2141096,5.2055677 99.0432129,5.54247839 99.0432129,5.95751953 C99.0432129,6.22607556 99.0847164,6.44091716 99.1677246,6.60205078 C99.2507328,6.7631844 99.3984364,6.93041906 99.6108398,7.10375977 C99.8232432,7.27710048 100.114988,7.46386619 100.486084,7.6640625 C101.042727,7.97168123 101.437011,8.22436425 101.668945,8.42211914 C101.90088,8.61987404 102.071777,8.83105356 102.181641,9.05566406 C102.291504,9.28027456 102.346436,9.54150242 102.346436,9.83935547 L102.346436,9.83935547 Z M109.099365,12 L107.8396,4.03857422 L108.579346,4.03857422 L109.370361,9.421875 C109.497315,10.2275431 109.577881,10.8476541 109.612061,11.2822266 L109.656006,11.2822266 C109.905031,10.7207003 110.219969,10.0957066 110.60083,9.40722656 L113.574463,4.03857422 L114.321533,4.03857422 L109.927002,12 L109.099365,12 Z M118.43042,3.9140625 C119.563238,3.9140625 120.244384,4.44872512 120.473877,5.51806641 L120.517822,5.51806641 L120.949951,4.03857422 L121.535889,4.03857422 L119.858643,12 L119.258057,12 L119.587646,9.99316406 L119.543701,9.99316406 C119.133543,10.6865269 118.677004,11.2187481 118.174072,11.5898438 C117.67114,11.9609394 117.092533,12.1464844 116.438232,12.1464844 C115.066155,12.1464844 114.380127,11.2334076 114.380127,9.40722656 C114.380127,8.44530769 114.563231,7.52734812 114.929443,6.65332031 C115.295656,5.7792925 115.785153,5.10425043 116.397949,4.62817383 C117.010745,4.15209723 117.688229,3.9140625 118.43042,3.9140625 L118.43042,3.9140625 Z M116.606689,11.4873047 C117.041262,11.4873047 117.474607,11.335939 117.906738,11.0332031 C118.338869,10.7304672 118.727049,10.3251979 119.071289,9.81738281 C119.415529,9.30956777 119.677978,8.74804995 119.858643,8.1328125 C120.039308,7.51757505 120.129639,6.99756072 120.129639,6.57275391 C120.129639,6.18700979 120.066163,5.84155426 119.939209,5.53637695 C119.812255,5.23119965 119.624269,4.98950284 119.375244,4.8112793 C119.126219,4.63305575 118.816164,4.54394531 118.445068,4.54394531 C117.839597,4.54394531 117.292727,4.74413862 116.804443,5.14453125 C116.31616,5.54492388 115.915773,6.14428312 115.603271,6.94262695 C115.29077,7.74097079 115.134521,8.53564058 115.134521,9.32666016 C115.134521,10.0688514 115.256591,10.6145002 115.500732,10.963623 C115.744874,11.3127459 116.113523,11.4873047 116.606689,11.4873047 L116.606689,11.4873047 Z M127.5271,12 L128.618408,6.93164062 C128.720948,6.48241963 128.772217,6.10156406 128.772217,5.7890625 C128.772217,5.39843555 128.666017,5.09326282 128.453613,4.87353516 C128.24121,4.6538075 127.912844,4.54394531 127.468506,4.54394531 C126.921628,4.54394531 126.407717,4.7075179 125.926758,5.03466797 C125.445798,5.36181804 125.040529,5.81957714 124.710937,6.40795898 C124.381346,6.99634083 124.128663,7.69579673 123.952881,8.50634766 L123.205811,12 L122.488037,12 L124.179932,4.03857422 L124.780518,4.03857422 L124.509521,5.65722656 L124.553467,5.65722656 C125.354252,4.49511138 126.369867,3.9140625 127.600342,3.9140625 C128.235111,3.9140625 128.71118,4.07031094 129.028564,4.3828125 C129.345949,4.69531406 129.504639,5.14452832 129.504639,5.73046875 C129.504639,6.07226733 129.446046,6.51659883 129.328857,7.06347656 L128.244873,12 L127.5271,12 Z M138.996826,3.9140625 C140.119879,3.9140625 140.801024,4.44872512 141.040283,5.51806641 L141.06958,5.51806641 C141.128174,5.19579917 141.477292,3.55763196 142.116943,0.603515625 L142.842041,0.603515625 L140.425049,12 L139.824463,12 L140.154053,9.99316406 L140.110107,9.99316406 C139.265377,11.4287181 138.230231,12.1464844 137.004639,12.1464844 C135.632561,12.1464844 134.946533,11.2334076 134.946533,9.40722656 C134.946533,8.46483904 135.121092,7.56152776 135.470215,6.69726562 C135.819338,5.83300349 136.301511,5.15307865 136.916748,4.6574707 C137.531985,4.16186276 138.225338,3.9140625 138.996826,3.9140625 L138.996826,3.9140625 Z M137.173096,11.4873047 C137.607668,11.4873047 138.043455,11.3347183 138.480469,11.029541 C138.917483,10.7243637 139.308104,10.3142116 139.652344,9.79907227 C139.996584,9.28393297 140.256591,8.71997377 140.432373,8.10717773 C140.608155,7.4943817 140.696045,6.98291221 140.696045,6.57275391 C140.696045,5.95751646 140.5459,5.46557802 140.245605,5.09692383 C139.945311,4.72826964 139.533938,4.54394531 139.011475,4.54394531 C138.406003,4.54394531 137.859133,4.74658 137.37085,5.15185547 C136.882566,5.55713093 136.482179,6.14916603 136.169678,6.92797852 C135.857176,7.706791 135.700928,8.50634355 135.700928,9.32666016 C135.700928,10.767097 136.191645,11.4873047 137.173096,11.4873047 L137.173096,11.4873047 Z M145.932861,12.1464844 C145.088131,12.1464844 144.428957,11.8791531 143.955322,11.3444824 C143.481687,10.8098118 143.244873,10.0639696 143.244873,9.10693359 C143.244873,8.22314011 143.418211,7.37598062 143.764893,6.56542969 C144.111574,5.75487876 144.588864,5.11035396 145.196777,4.63183594 C145.804691,4.15331792 146.47485,3.9140625 147.207275,3.9140625 C147.763919,3.9140625 148.20825,4.06298679 148.540283,4.36083984 C148.872316,4.6586929 149.03833,5.06396228 149.03833,5.57666016 C149.03833,6.46045364 148.639164,7.13427502 147.84082,7.59814453 C147.042476,8.06201404 145.857186,8.29394531 144.284912,8.29394531 L144.043213,8.29394531 C144.013916,8.50879014 143.999268,8.74804556 143.999268,9.01171875 C143.999268,9.81738684 144.17993,10.4313944 144.54126,10.8537598 C144.90259,11.2761252 145.422604,11.4873047 146.101318,11.4873047 C146.745853,11.4873047 147.419674,11.3090838 148.122803,10.9526367 L148.122803,11.6411133 C147.439206,11.978029 146.709232,12.1464844 145.932861,12.1464844 L145.932861,12.1464844 Z M147.119385,4.54394531 C146.479733,4.54394531 145.885257,4.82592491 145.335938,5.38989258 C144.786618,5.95386024 144.389894,6.70702654 144.145752,7.64941406 L144.504639,7.64941406 C147.029065,7.64941406 148.29126,6.99024097 148.29126,5.671875 C148.29126,5.34472493 148.18506,5.07495223 147.972656,4.86254883 C147.760253,4.65014542 147.475832,4.54394531 147.119385,4.54394531 L147.119385,4.54394531 Z M20.564209,32 L19.795166,32 L21.4431152,24.2729492 C21.5358891,23.8237282 21.7165514,23.1084033 21.9851074,22.1269531 C21.7800283,22.3027353 21.5957039,22.4516595 21.4321289,22.5737305 C21.2685539,22.6958014 20.6594291,23.0888639 19.6047363,23.7529297 L19.223877,23.1816406 L22.1975098,21.2919922 L22.8566895,21.2919922 L20.564209,32 Z M32.7663574,24.5585938 C32.7663574,25.540044 32.6662608,26.5288036 32.4660645,27.5249023 C32.2658681,28.5210011 31.9814472,29.3657192 31.612793,30.059082 C31.2441388,30.7524449 30.7961452,31.2736799 30.2687988,31.6228027 C29.7414524,31.9719256 29.150638,32.1464844 28.4963379,32.1464844 C27.6369586,32.1464844 26.9912131,31.8376496 26.559082,31.2199707 C26.126951,30.6022918 25.9108887,29.6562564 25.9108887,28.3818359 C25.9108887,27.4736283 26.0195302,26.5422411 26.2368164,25.5876465 C26.4541026,24.6330519 26.756834,23.8176303 27.1450195,23.1413574 C27.5332051,22.4650845 27.9897435,21.9597185 28.5146484,21.6252441 C29.0395534,21.2907698 29.6267057,21.1235352 30.276123,21.1235352 C31.9362876,21.1235352 32.7663574,22.2685432 32.7663574,24.5585938 L32.7663574,24.5585938 Z M30.1882324,21.7680664 C29.5339323,21.7680664 28.9443386,22.0439426 28.4194336,22.5957031 C27.8945286,23.1474637 27.4709489,23.9506783 27.1486816,25.0053711 C26.8264144,26.0600639 26.6652832,27.1611271 26.6652832,28.3085938 C26.6652832,29.3925835 26.8178696,30.1957982 27.1230469,30.7182617 C27.4282242,31.2407253 27.9103971,31.5019531 28.5695801,31.5019531 C29.2482944,31.5019531 29.8439916,31.2285184 30.3566895,30.6816406 C30.8693873,30.1347629 31.2746567,29.3120172 31.5725098,28.2133789 C31.8703628,27.1147406 32.0192871,25.9209049 32.0192871,24.6318359 C32.0192871,23.6601514 31.8740249,22.9399437 31.5834961,22.4711914 C31.2929673,22.0024391 30.8278841,21.7680664 30.1882324,21.7680664 L30.1882324,21.7680664 Z M41.0280762,24.5585938 C41.0280762,25.540044 40.9279795,26.5288036 40.7277832,27.5249023 C40.5275869,28.5210011 40.2431659,29.3657192 39.8745117,30.059082 C39.5058575,30.7524449 39.057864,31.2736799 38.5305176,31.6228027 C38.0031712,31.9719256 37.4123568,32.1464844 36.7580566,32.1464844 C35.8986773,32.1464844 35.2529318,31.8376496 34.8208008,31.2199707 C34.3886697,30.6022918 34.1726074,29.6562564 34.1726074,28.3818359 C34.1726074,27.4736283 34.2812489,26.5422411 34.4985352,25.5876465 C34.7158214,24.6330519 35.0185527,23.8176303 35.4067383,23.1413574 C35.7949238,22.4650845 36.2514622,21.9597185 36.7763672,21.6252441 C37.3012722,21.2907698 37.8884245,21.1235352 38.5378418,21.1235352 C40.1980063,21.1235352 41.0280762,22.2685432 41.0280762,24.5585938 L41.0280762,24.5585938 Z M38.4499512,21.7680664 C37.795651,21.7680664 37.2060573,22.0439426 36.6811523,22.5957031 C36.1562474,23.1474637 35.7326676,23.9506783 35.4104004,25.0053711 C35.0881332,26.0600639 34.927002,27.1611271 34.927002,28.3085938 C34.927002,29.3925835 35.0795883,30.1957982 35.3847656,30.7182617 C35.6899429,31.2407253 36.1721158,31.5019531 36.8312988,31.5019531 C37.5100132,31.5019531 38.1057103,31.2285184 38.6184082,30.6816406 C39.1311061,30.1347629 39.5363755,29.3120172 39.8342285,28.2133789 C40.1320816,27.1147406 40.2810059,25.9209049 40.2810059,24.6318359 C40.2810059,23.6601514 40.1357436,22.9399437 39.8452148,22.4711914 C39.554686,22.0024391 39.0896028,21.7680664 38.4499512,21.7680664 L38.4499512,21.7680664 Z M50.1101074,23.9140625 C51.2429256,23.9140625 51.9240711,24.4487251 52.1535645,25.5180664 L52.1975098,25.5180664 L52.6296387,24.0385742 L53.2155762,24.0385742 L51.5383301,32 L50.9377441,32 L51.267334,29.9931641 L51.2233887,29.9931641 C50.8132304,30.6865269 50.356692,31.2187481 49.8537598,31.5898438 C49.3508276,31.9609394 48.7722201,32.1464844 48.1179199,32.1464844 C46.7458427,32.1464844 46.0598145,31.2334076 46.0598145,29.4072266 C46.0598145,28.4453077 46.2429181,27.5273481 46.6091309,26.6533203 C46.9753436,25.7792925 47.4648407,25.1042504 48.0776367,24.6281738 C48.6904328,24.1520972 49.3679162,23.9140625 50.1101074,23.9140625 L50.1101074,23.9140625 Z M48.286377,31.4873047 C48.7209494,31.4873047 49.1542947,31.335939 49.5864258,31.0332031 C50.0185568,30.7304672 50.4067366,30.3251979 50.7509766,29.8173828 C51.0952166,29.3095678 51.3576651,28.74805 51.5383301,28.1328125 C51.718995,27.517575 51.8093262,26.9975607 51.8093262,26.5727539 C51.8093262,26.1870098 51.7458502,25.8415543 51.6188965,25.536377 C51.4919427,25.2311996 51.3039563,24.9895028 51.0549316,24.8112793 C50.805907,24.6330557 50.4958515,24.5439453 50.1247559,24.5439453 C49.5192841,24.5439453 48.9724146,24.7441386 48.4841309,25.1445312 C47.9958472,25.5449239 47.5954605,26.1442831 47.282959,26.942627 C46.9704574,27.7409708 46.814209,28.5356406 46.814209,29.3266602 C46.814209,30.0688514 46.9362781,30.6145002 47.1804199,30.963623 C47.4245618,31.3127459 47.7932104,31.4873047 48.286377,31.4873047 L48.286377,31.4873047 Z M57.1047363,32.1464844 C56.2551227,32.1464844 55.5849634,31.8767117 55.0942383,31.3371582 C54.6035132,30.7976047 54.3581543,30.0493212 54.3581543,29.0922852 C54.3581543,28.1498976 54.5375959,27.2673381 54.8964844,26.4445801 C55.2553729,25.6218221 55.7399872,24.9943869 56.3503418,24.5622559 C56.9606964,24.1301248 57.6686971,23.9140625 58.4743652,23.9140625 C59.1286654,23.9140625 59.7170384,24.0190419 60.239502,24.2290039 L60.0344238,24.8881836 C59.5119603,24.6586903 58.979739,24.5439453 58.4377441,24.5439453 C57.8078582,24.5439453 57.2402369,24.7319317 56.7348633,25.1079102 C56.2294897,25.4838886 55.8327651,26.0258754 55.5446777,26.7338867 C55.2565904,27.4418981 55.1125488,28.2231403 55.1125488,29.0776367 C55.1125488,29.849125 55.2919904,30.4436014 55.6508789,30.861084 C56.0097674,31.2785665 56.5187955,31.4873047 57.1779785,31.4873047 C57.5246599,31.4873047 57.8457016,31.4555667 58.1411133,31.3920898 C58.4365249,31.328613 58.7575666,31.2163094 59.104248,31.0551758 L59.104248,31.7290039 C58.537839,32.0073256 57.8713417,32.1464844 57.1047363,32.1464844 L57.1047363,32.1464844 Z M65.7033691,32 L66.7946777,26.9316406 C66.8972173,26.4824196 66.9484863,26.1015641 66.9484863,25.7890625 C66.9484863,25.3984355 66.8422862,25.0932628 66.6298828,24.8735352 C66.4174794,24.6538075 66.0891135,24.5439453 65.6447754,24.5439453 C65.0978977,24.5439453 64.5839868,24.7075179 64.1030273,25.034668 C63.6220679,25.361818 63.2167985,25.8207978 62.887207,26.4116211 C62.5576155,27.0024444 62.3049325,27.7006796 62.1291504,28.5063477 L61.3820801,32 L60.6643066,32 L63.0959473,20.6035156 L63.7990723,20.6035156 L63.1691895,23.6137695 C62.9543446,24.5903369 62.7932134,25.2714824 62.685791,25.6572266 L62.7297363,25.6572266 C63.1105976,25.105466 63.5659153,24.6770035 64.0957031,24.3718262 C64.6254909,24.0666489 65.1857881,23.9140625 65.7766113,23.9140625 C66.3820831,23.9140625 66.8508284,24.0727523 67.1828613,24.3901367 C67.5148942,24.7075211 67.6809082,25.154294 67.6809082,25.7304688 C67.6809082,26.0722673 67.622315,26.5165988 67.505127,27.0634766 L66.4211426,32 L65.7033691,32 Z M69.7536621,32 L69.0358887,32 L70.7277832,24.0385742 L71.4309082,24.0385742 L69.7536621,32 Z M71.0427246,21.9951172 C71.0427246,21.7265612 71.096435,21.5117196 71.2038574,21.3505859 C71.3112798,21.1894523 71.4577627,21.1088867 71.6433105,21.1088867 C71.9216323,21.1088867 72.060791,21.2846662 72.060791,21.6362305 C72.060791,21.9145522 72.0070806,22.1342765 71.8996582,22.2954102 C71.7922358,22.4565438 71.653077,22.5371094 71.4821777,22.5371094 C71.3405755,22.5371094 71.231934,22.4895024 71.15625,22.3942871 C71.080566,22.2990718 71.0427246,22.1660165 71.0427246,21.9951172 L71.0427246,21.9951172 Z M75.3933105,32.1464844 C74.5485798,32.1464844 73.8894067,31.8791531 73.4157715,31.3444824 C72.9421363,30.8098118 72.7053223,30.0639696 72.7053223,29.1069336 C72.7053223,28.2231401 72.8786604,27.3759806 73.2253418,26.5654297 C73.5720232,25.7548788 74.0493134,25.110354 74.6572266,24.6318359 C75.2651398,24.1533179 75.9352991,23.9140625 76.6677246,23.9140625 C77.224368,23.9140625 77.6686995,24.0629868 78.0007324,24.3608398 C78.3327653,24.6586929 78.4987793,25.0639623 78.4987793,25.5766602 C78.4987793,26.4604536 78.0996134,27.134275 77.3012695,27.5981445 C76.5029257,28.062014 75.3176348,28.2939453 73.7453613,28.2939453 L73.5036621,28.2939453 C73.4743651,28.5087901 73.4597168,28.7480456 73.4597168,29.0117188 C73.4597168,29.8173868 73.6403791,30.4313944 74.001709,30.8537598 C74.3630389,31.2761252 74.8830532,31.4873047 75.5617676,31.4873047 C76.2063021,31.4873047 76.8801234,31.3090838 77.583252,30.9526367 L77.583252,31.6411133 C76.8996548,31.978029 76.1696816,32.1464844 75.3933105,32.1464844 L75.3933105,32.1464844 Z M76.579834,24.5439453 C75.9401823,24.5439453 75.3457059,24.8259249 74.7963867,25.3898926 C74.2470676,25.9538602 73.850343,26.7070265 73.6062012,27.6494141 L73.9650879,27.6494141 C76.4895146,27.6494141 77.751709,26.990241 77.751709,25.671875 C77.751709,25.3447249 77.6455089,25.0749522 77.4331055,24.8625488 C77.2207021,24.6501454 76.9362811,24.5439453 76.579834,24.5439453 L76.579834,24.5439453 Z M80.4763184,32 L79.2165527,24.0385742 L79.9562988,24.0385742 L80.7473145,29.421875 C80.8742682,30.2275431 80.9548338,30.8476541 80.9890137,31.2822266 L81.032959,31.2822266 C81.2819837,30.7207003 81.5969219,30.0957066 81.9777832,29.4072266 L84.951416,24.0385742 L85.6984863,24.0385742 L81.3039551,32 L80.4763184,32 Z M88.4450684,32.1464844 C87.6003376,32.1464844 86.9411645,31.8791531 86.4675293,31.3444824 C85.9938941,30.8098118 85.7570801,30.0639696 85.7570801,29.1069336 C85.7570801,28.2231401 85.9304182,27.3759806 86.2770996,26.5654297 C86.623781,25.7548788 87.1010712,25.110354 87.7089844,24.6318359 C88.3168976,24.1533179 88.9870569,23.9140625 89.7194824,23.9140625 C90.2761258,23.9140625 90.7204573,24.0629868 91.0524902,24.3608398 C91.3845231,24.6586929 91.5505371,25.0639623 91.5505371,25.5766602 C91.5505371,26.4604536 91.1513712,27.134275 90.3530273,27.5981445 C89.5546835,28.062014 88.3693926,28.2939453 86.7971191,28.2939453 L86.5554199,28.2939453 C86.5261229,28.5087901 86.5114746,28.7480456 86.5114746,29.0117188 C86.5114746,29.8173868 86.6921369,30.4313944 87.0534668,30.8537598 C87.4147967,31.2761252 87.9348111,31.4873047 88.6135254,31.4873047 C89.2580599,31.4873047 89.9318813,31.3090838 90.6350098,30.9526367 L90.6350098,31.6411133 C89.9514126,31.978029 89.2214394,32.1464844 88.4450684,32.1464844 L88.4450684,32.1464844 Z M89.6315918,24.5439453 C88.9919402,24.5439453 88.3974637,24.8259249 87.8481445,25.3898926 C87.2988254,25.9538602 86.9021008,26.7070265 86.657959,27.6494141 L87.0168457,27.6494141 C89.5412724,27.6494141 90.8034668,26.990241 90.8034668,25.671875 C90.8034668,25.3447249 90.6972667,25.0749522 90.4848633,24.8625488 C90.2724599,24.6501454 89.9880389,24.5439453 89.6315918,24.5439453 L89.6315918,24.5439453 Z M97.0144043,32 L98.0910645,27.0634766 C98.2131354,26.4531219 98.2741699,26.0576181 98.2741699,25.8769531 C98.2741699,24.9882768 97.8981971,24.5439453 97.1462402,24.5439453 C96.6286595,24.5439453 96.1403832,24.7087386 95.6813965,25.0383301 C95.2224098,25.3679216 94.8342301,25.828122 94.5168457,26.4189453 C94.1994613,27.0097686 93.9553231,27.7104452 93.7844238,28.5209961 L93.052002,32 L92.3342285,32 L94.026123,24.0385742 L94.6120605,24.0385742 L94.3703613,25.5766602 L94.4143066,25.5766602 C94.8049336,25.0248996 95.2480444,24.6098647 95.7436523,24.331543 C96.2392603,24.0532213 96.7580539,23.9140625 97.3000488,23.9140625 C97.8176295,23.9140625 98.2155748,24.0776351 98.4938965,24.4047852 C98.7722182,24.7319352 98.9187011,25.2080047 98.9333496,25.8330078 L98.9772949,25.8330078 C99.3532734,25.2031219 99.7951635,24.7258317 100.302979,24.401123 C100.810794,24.0764144 101.35278,23.9140625 101.928955,23.9140625 C102.500247,23.9140625 102.945799,24.0642075 103.265625,24.364502 C103.585451,24.6647964 103.745361,25.0957003 103.745361,25.6572266 C103.745361,25.7988288 103.739258,25.9367669 103.727051,26.0710449 C103.714844,26.2053229 103.667237,26.4970681 103.584229,26.9462891 L102.470947,32 L101.738525,32 L102.829834,27.0195312 C102.951905,26.4335908 103.012939,26.0039076 103.012939,25.7304688 C103.012939,25.3544903 102.90796,25.0627452 102.697998,24.8552246 C102.488036,24.647704 102.197512,24.5439453 101.826416,24.5439453 C101.059811,24.5439453 100.382327,24.8796353 99.7939453,25.5510254 C99.2055635,26.2224155 98.7941906,27.1074164 98.5598145,28.2060547 L97.7614746,32 L97.0144043,32 Z M108.06665,32.1464844 C107.22192,32.1464844 106.562747,31.8791531 106.089111,31.3444824 C105.615476,30.8098118 105.378662,30.0639696 105.378662,29.1069336 C105.378662,28.2231401 105.552,27.3759806 105.898682,26.5654297 C106.245363,25.7548788 106.722653,25.110354 107.330566,24.6318359 C107.93848,24.1533179 108.608639,23.9140625 109.341064,23.9140625 C109.897708,23.9140625 110.342039,24.0629868 110.674072,24.3608398 C111.006105,24.6586929 111.172119,25.0639623 111.172119,25.5766602 C111.172119,26.4604536 110.772953,27.134275 109.974609,27.5981445 C109.176266,28.062014 107.990975,28.2939453 106.418701,28.2939453 L106.177002,28.2939453 C106.147705,28.5087901 106.133057,28.7480456 106.133057,29.0117188 C106.133057,29.8173868 106.313719,30.4313944 106.675049,30.8537598 C107.036379,31.2761252 107.556393,31.4873047 108.235107,31.4873047 C108.879642,31.4873047 109.553463,31.3090838 110.256592,30.9526367 L110.256592,31.6411133 C109.572995,31.978029 108.843021,32.1464844 108.06665,32.1464844 L108.06665,32.1464844 Z M109.253174,24.5439453 C108.613522,24.5439453 108.019046,24.8259249 107.469727,25.3898926 C106.920407,25.9538602 106.523683,26.7070265 106.279541,27.6494141 L106.638428,27.6494141 C109.162854,27.6494141 110.425049,26.990241 110.425049,25.671875 C110.425049,25.3447249 110.318849,25.0749522 110.106445,24.8625488 C109.894042,24.6501454 109.609621,24.5439453 109.253174,24.5439453 L109.253174,24.5439453 Z M117.02417,32 L118.115479,26.9316406 C118.218018,26.4824196 118.269287,26.1015641 118.269287,25.7890625 C118.269287,25.3984355 118.163087,25.0932628 117.950684,24.8735352 C117.73828,24.6538075 117.409914,24.5439453 116.965576,24.5439453 C116.418698,24.5439453 115.904788,24.7075179 115.423828,25.034668 C114.942869,25.361818 114.537599,25.8195771 114.208008,26.407959 C113.878416,26.9963408 113.625733,27.6957967 113.449951,28.5063477 L112.702881,32 L111.985107,32 L113.677002,24.0385742 L114.277588,24.0385742 L114.006592,25.6572266 L114.050537,25.6572266 C114.851322,24.4951114 115.866937,23.9140625 117.097412,23.9140625 C117.732181,23.9140625 118.20825,24.0703109 118.525635,24.3828125 C118.843019,24.6953141 119.001709,25.1445283 119.001709,25.7304688 C119.001709,26.0722673 118.943116,26.5165988 118.825928,27.0634766 L117.741943,32 L117.02417,32 Z M124.883057,24.0385742 L124.751221,24.6318359 L122.678467,24.6318359 L121.689697,29.2827148 C121.582275,29.7661157 121.528564,30.1665023 121.528564,30.4838867 C121.528564,31.162601 121.836179,31.5019531 122.451416,31.5019531 C122.783449,31.5019531 123.154539,31.4384772 123.564697,31.3115234 L123.564697,31.9414062 C123.071531,32.0781257 122.656496,32.1464844 122.31958,32.1464844 C121.836179,32.1464844 121.462648,32.0134291 121.198975,31.7473145 C120.935301,31.4811998 120.803467,31.0942408 120.803467,30.5864258 C120.803467,30.2299787 120.874267,29.727054 121.015869,29.0776367 L121.960693,24.6318359 L120.627686,24.6318359 L120.730225,24.1411133 L122.077881,24.0166016 L122.78833,22.1635742 L123.191162,22.1635742 L122.78833,24.0385742 L124.883057,24.0385742 Z M129.533936,29.8393555 C129.533936,30.542484 129.282473,31.1027811 128.779541,31.5202637 C128.276609,31.9377462 127.593022,32.1464844 126.72876,32.1464844 C125.884029,32.1464844 125.139408,31.9633807 124.494873,31.597168 L124.494873,30.8134766 C124.856203,31.0380871 125.229734,31.2114252 125.615479,31.3334961 C126.001223,31.455567 126.362547,31.5166016 126.699463,31.5166016 C127.373294,31.5166016 127.888426,31.3762221 128.244873,31.095459 C128.60132,30.8146959 128.779541,30.4155299 128.779541,29.8979492 C128.779541,29.6928701 128.7417,29.5122078 128.666016,29.355957 C128.590332,29.1997062 128.468263,29.0495613 128.299805,28.9055176 C128.131347,28.7614739 127.807864,28.5527357 127.329346,28.2792969 C126.606686,27.8886699 126.118409,27.5334489 125.864502,27.213623 C125.610594,26.8937972 125.483643,26.5043968 125.483643,26.0454102 C125.483643,25.420407 125.724119,24.9089375 126.205078,24.5109863 C126.686038,24.1130351 127.319576,23.9140625 128.105713,23.9140625 C128.471926,23.9140625 128.858885,23.9567867 129.266602,24.0422363 C129.674318,24.127686 130.017333,24.2412102 130.295654,24.3828125 L130.039307,25.0273438 C129.375241,24.7148422 128.730716,24.5585938 128.105713,24.5585938 C127.539304,24.5585938 127.085207,24.687987 126.743408,24.9467773 C126.40161,25.2055677 126.230713,25.5424784 126.230713,25.9575195 C126.230713,26.2260756 126.272216,26.4409172 126.355225,26.6020508 C126.438233,26.7631844 126.585936,26.9304191 126.79834,27.1037598 C127.010743,27.2771005 127.302488,27.4638662 127.673584,27.6640625 C128.230227,27.9716812 128.624511,28.2243642 128.856445,28.4221191 C129.08838,28.619874 129.259277,28.8310536 129.369141,29.0556641 C129.479004,29.2802746 129.533936,29.5415024 129.533936,29.8393555 L129.533936,29.8393555 Z" id="12-achievements-van-"></path>
                    </g>
                </g>
            </g>
        </g>
    </g>
</svg>