<?xml version="1.0" encoding="UTF-8" standalone="no"?>
<svg width="216px" height="216px" viewBox="0 0 216 216" version="1.1" xmlns="http://www.w3.org/2000/svg" xmlns:xlink="http://www.w3.org/1999/xlink" xmlns:sketch="http://www.bohemiancoding.com/sketch/ns">
    <!-- Generator: Sketch 3.4.2 (15855) - http://www.bohemiancoding.com/sketch -->
    <title>Rectangle 94 Copy 4 + GEM. DUUR  + Group</title>
    <desc>Created with Sketch.</desc>
    <defs></defs>
    <g id="Def-Desktop" stroke="none" stroke-width="1" fill="none" fill-rule="evenodd" sketch:type="MSPage">
        <g id="Dashboard" sketch:type="MSArtboardGroup" transform="translate(-748.000000, -578.000000)">
            <g id="Rectangle-94-Copy-4-+-GEM.-DUUR--+-Group" sketch:type="MSLayerGroup" transform="translate(748.000000, 578.000000)">
                <rect id="Rectangle-94-Copy-4" fill="#F2F8FA" sketch:type="MSShapeGroup" x="0" y="0" width="216" height="216" rx="1"></rect>
                <path d="M71.8000488,30.1918945 L75.7404785,30.1918945 L75.7404785,35.5678711 C75.095944,35.7778331 74.4770537,35.9267574 73.8837891,36.0146484 C73.2905244,36.1025395 72.6496616,36.1464844 71.9611816,36.1464844 C70.3400798,36.1464844 69.0900923,35.6667528 68.2111816,34.7072754 C67.332271,33.7477979 66.8928223,32.3940517 66.8928223,30.6459961 C66.8928223,28.9223547 67.3884228,27.5734912 68.3796387,26.5993652 C69.3708546,25.6252393 70.735587,25.1381836 72.473877,25.1381836 C73.5920466,25.1381836 74.6516063,25.3530252 75.6525879,25.7827148 L75.0373535,27.2402344 C74.1682085,26.8398417 73.2990766,26.6396484 72.4299316,26.6396484 C71.2873478,26.6396484 70.3840365,26.9985316 69.7199707,27.7163086 C69.0559049,28.4340856 68.723877,29.4155211 68.723877,30.6606445 C68.723877,31.9692448 69.0229462,32.9641079 69.6210938,33.6452637 C70.2192413,34.3264194 71.0798284,34.6669922 72.2028809,34.6669922 C72.7692899,34.6669922 73.3747526,34.5961921 74.0192871,34.4545898 L74.0192871,31.6933594 L71.8000488,31.6933594 L71.8000488,30.1918945 Z M84.3684082,36 L78.3112793,36 L78.3112793,25.2919922 L84.3684082,25.2919922 L84.3684082,26.7714844 L80.0617676,26.7714844 L80.0617676,29.6865234 L84.0974121,29.6865234 L84.0974121,31.1513672 L80.0617676,31.1513672 L80.0617676,34.5131836 L84.3684082,34.5131836 L84.3684082,36 Z M91.3117676,36 L88.2062988,27.0571289 L88.1477051,27.0571289 C88.2307133,28.3852605 88.2722168,29.6303653 88.2722168,30.7924805 L88.2722168,36 L86.6828613,36 L86.6828613,25.2919922 L89.151123,25.2919922 L92.1247559,33.8100586 L92.1687012,33.8100586 L95.2302246,25.2919922 L97.7058105,25.2919922 L97.7058105,36 L96.0212402,36 L96.0212402,30.7045898 C96.0212402,30.1723606 96.0346678,29.4790082 96.0615234,28.6245117 C96.088379,27.7700153 96.1115722,27.2524423 96.1311035,27.0717773 L96.0725098,27.0717773 L92.8571777,36 L91.3117676,36 Z M100.086182,35.0844727 C100.086182,34.7280256 100.178954,34.4545908 100.364502,34.2641602 C100.55005,34.0737295 100.818602,33.9785156 101.170166,33.9785156 C101.526613,33.9785156 101.797606,34.0773916 101.983154,34.2751465 C102.168702,34.4729014 102.261475,34.7426741 102.261475,35.0844727 C102.261475,35.4311541 102.167481,35.7058095 101.979492,35.9084473 C101.791503,36.111085 101.52173,36.2124023 101.170166,36.2124023 C100.818602,36.2124023 100.55005,36.1123057 100.364502,35.9121094 C100.178954,35.7119131 100.086182,35.4360369 100.086182,35.0844727 L100.086182,35.0844727 Z M117.25415,30.543457 C117.25415,32.311044 116.763433,33.6623488 115.781982,34.5974121 C114.800532,35.5324754 113.386972,36 111.54126,36 L108.545654,36 L108.545654,25.2919922 L111.856201,25.2919922 C113.560311,25.2919922 114.885982,25.750972 115.833252,26.6689453 C116.780522,27.5869187 117.25415,28.8784096 117.25415,30.543457 L117.25415,30.543457 Z M115.408447,30.6020508 C115.408447,28.0385614 114.209729,26.7568359 111.812256,26.7568359 L110.296143,26.7568359 L110.296143,34.527832 L111.54126,34.527832 C114.119398,34.527832 115.408447,33.2192514 115.408447,30.6020508 L115.408447,30.6020508 Z M127.94751,25.2919922 L127.94751,32.2207031 C127.94751,33.0117227 127.777834,33.7038545 127.438477,34.2971191 C127.099119,34.8903838 126.608402,35.3469222 125.966309,35.666748 C125.324216,35.9865739 124.556401,36.1464844 123.662842,36.1464844 C122.33471,36.1464844 121.302006,35.7949254 120.564697,35.0917969 C119.827389,34.3886684 119.45874,33.4218812 119.45874,32.1914062 L119.45874,25.2919922 L121.216553,25.2919922 L121.216553,32.0668945 C121.216553,32.950688 121.421629,33.602537 121.831787,34.0224609 C122.241945,34.4423849 122.871822,34.6523438 123.721436,34.6523438 C125.371834,34.6523438 126.197021,33.7856532 126.197021,32.0522461 L126.197021,25.2919922 L127.94751,25.2919922 Z M139.080322,25.2919922 L139.080322,32.2207031 C139.080322,33.0117227 138.910646,33.7038545 138.571289,34.2971191 C138.231932,34.8903838 137.741214,35.3469222 137.099121,35.666748 C136.457028,35.9865739 135.689213,36.1464844 134.795654,36.1464844 C133.467523,36.1464844 132.434818,35.7949254 131.69751,35.0917969 C130.960201,34.3886684 130.591553,33.4218812 130.591553,32.1914062 L130.591553,25.2919922 L132.349365,25.2919922 L132.349365,32.0668945 C132.349365,32.950688 132.554441,33.602537 132.9646,34.0224609 C133.374758,34.4423849 134.004634,34.6523438 134.854248,34.6523438 C136.504647,34.6523438 137.329834,33.7856532 137.329834,32.0522461 L137.329834,25.2919922 L139.080322,25.2919922 Z M143.570068,30.2724609 L144.785889,30.2724609 C145.601322,30.2724609 146.192137,30.1210953 146.55835,29.8183594 C146.924562,29.5156235 147.107666,29.0664092 147.107666,28.4707031 C147.107666,27.8652313 146.909914,27.4306654 146.514404,27.1669922 C146.118895,26.903319 145.523197,26.7714844 144.727295,26.7714844 L143.570068,26.7714844 L143.570068,30.2724609 Z M143.570068,31.7226562 L143.570068,36 L141.81958,36 L141.81958,25.2919922 L144.844482,25.2919922 C146.226325,25.2919922 147.249264,25.5507787 147.91333,26.0683594 C148.577396,26.5859401 148.909424,27.3671823 148.909424,28.4121094 C148.909424,29.7451239 148.216071,30.6948214 146.829346,31.2612305 L149.854248,36 L147.862061,36 L145.298584,31.7226562 L143.570068,31.7226562 Z M77.9304199,52.5292969 C77.9304199,53.6474665 77.5642126,54.5043916 76.8317871,55.1000977 C76.0993616,55.6958038 75.0568915,55.9936523 73.7043457,55.9936523 L72.5910645,55.9936523 L72.5910645,60 L70.8405762,60 L70.8405762,49.2919922 L73.9240723,49.2919922 C75.2619696,49.2919922 76.2641568,49.565427 76.9306641,50.1123047 C77.5971713,50.6591824 77.9304199,51.4648384 77.9304199,52.5292969 L77.9304199,52.5292969 Z M72.5910645,54.5214844 L73.5212402,54.5214844 C74.4196822,54.5214844 75.0788553,54.3652359 75.4987793,54.0527344 C75.9187033,53.7402328 76.1286621,53.2519564 76.1286621,52.5878906 C76.1286621,51.9726532 75.9406757,51.5136734 75.5646973,51.2109375 C75.1887188,50.9082016 74.6027872,50.7568359 73.8068848,50.7568359 L72.5910645,50.7568359 L72.5910645,54.5214844 Z M86.1262207,60 L80.0690918,60 L80.0690918,49.2919922 L86.1262207,49.2919922 L86.1262207,50.7714844 L81.8195801,50.7714844 L81.8195801,53.6865234 L85.8552246,53.6865234 L85.8552246,55.1513672 L81.8195801,55.1513672 L81.8195801,58.5131836 L86.1262207,58.5131836 L86.1262207,60 Z M90.1911621,54.2724609 L91.4069824,54.2724609 C92.2224162,54.2724609 92.8132306,54.1210953 93.1794434,53.8183594 C93.5456561,53.5156235 93.7287598,53.0664092 93.7287598,52.4707031 C93.7287598,51.8652313 93.5310078,51.4306654 93.135498,51.1669922 C92.7399883,50.903319 92.1442911,50.7714844 91.3483887,50.7714844 L90.1911621,50.7714844 L90.1911621,54.2724609 Z M90.1911621,55.7226562 L90.1911621,60 L88.4406738,60 L88.4406738,49.2919922 L91.4655762,49.2919922 C92.847419,49.2919922 93.870358,49.5507787 94.5344238,50.0683594 C95.1984896,50.5859401 95.5305176,51.3671823 95.5305176,52.4121094 C95.5305176,53.7451239 94.8371651,54.6948214 93.4504395,55.2612305 L96.4753418,60 L94.4831543,60 L91.9196777,55.7226562 L90.1911621,55.7226562 Z M108.098877,57.0922852 C108.098877,58.0444384 107.754642,58.7915012 107.066162,59.3334961 C106.377682,59.875491 105.427985,60.1464844 104.217041,60.1464844 C103.006097,60.1464844 102.014896,59.958498 101.243408,59.5825195 L101.243408,57.9272461 C101.731692,58.1567394 102.250486,58.3374017 102.799805,58.4692383 C103.349124,58.6010749 103.860593,58.6669922 104.334229,58.6669922 C105.027591,58.6669922 105.539061,58.5351576 105.868652,58.2714844 C106.198244,58.0078112 106.363037,57.6538108 106.363037,57.2094727 C106.363037,56.80908 106.211671,56.469728 105.908936,56.1914062 C105.6062,55.9130845 104.981206,55.583498 104.033936,55.2026367 C103.057368,54.8071269 102.368898,54.3554713 101.968506,53.8476562 C101.568113,53.3398412 101.36792,52.7294958 101.36792,52.0166016 C101.36792,51.1230424 101.6853,50.4199244 102.320068,49.9072266 C102.954837,49.3945287 103.806879,49.1381836 104.876221,49.1381836 C105.901616,49.1381836 106.922114,49.3627907 107.937744,49.8120117 L107.381104,51.2402344 C106.42895,50.8398417 105.579349,50.6396484 104.832275,50.6396484 C104.265866,50.6396484 103.836183,50.7629382 103.543213,51.0095215 C103.250243,51.2561047 103.10376,51.5820292 103.10376,51.9873047 C103.10376,52.2656264 103.162353,52.5036611 103.279541,52.701416 C103.396729,52.8991709 103.589598,53.0859366 103.858154,53.2617188 C104.12671,53.4375009 104.610104,53.6694322 105.30835,53.9575195 C106.094486,54.2846696 106.670652,54.5898423 107.036865,54.8730469 C107.403078,55.1562514 107.67163,55.4760724 107.842529,55.8325195 C108.013429,56.1889666 108.098877,56.6088843 108.098877,57.0922852 L108.098877,57.0922852 Z M116.22876,60 L110.171631,60 L110.171631,49.2919922 L116.22876,49.2919922 L116.22876,50.7714844 L111.922119,50.7714844 L111.922119,53.6865234 L115.957764,53.6865234 L115.957764,55.1513672 L111.922119,55.1513672 L111.922119,58.5131836 L116.22876,58.5131836 L116.22876,60 Z M124.717529,57.0922852 C124.717529,58.0444384 124.373294,58.7915012 123.684814,59.3334961 C122.996334,59.875491 122.046637,60.1464844 120.835693,60.1464844 C119.62475,60.1464844 118.633549,59.958498 117.862061,59.5825195 L117.862061,57.9272461 C118.350344,58.1567394 118.869138,58.3374017 119.418457,58.4692383 C119.967776,58.6010749 120.479246,58.6669922 120.952881,58.6669922 C121.646244,58.6669922 122.157713,58.5351576 122.487305,58.2714844 C122.816896,58.0078112 122.981689,57.6538108 122.981689,57.2094727 C122.981689,56.80908 122.830324,56.469728 122.527588,56.1914062 C122.224852,55.9130845 121.599858,55.583498 120.652588,55.2026367 C119.676021,54.8071269 118.987551,54.3554713 118.587158,53.8476562 C118.186766,53.3398412 117.986572,52.7294958 117.986572,52.0166016 C117.986572,51.1230424 118.303952,50.4199244 118.938721,49.9072266 C119.57349,49.3945287 120.425532,49.1381836 121.494873,49.1381836 C122.520269,49.1381836 123.540766,49.3627907 124.556396,49.8120117 L123.999756,51.2402344 C123.047603,50.8398417 122.198002,50.6396484 121.450928,50.6396484 C120.884519,50.6396484 120.454835,50.7629382 120.161865,51.0095215 C119.868895,51.2561047 119.722412,51.5820292 119.722412,51.9873047 C119.722412,52.2656264 119.781005,52.5036611 119.898193,52.701416 C120.015381,52.8991709 120.208251,53.0859366 120.476807,53.2617188 C120.745363,53.4375009 121.228756,53.6694322 121.927002,53.9575195 C122.713139,54.2846696 123.289305,54.5898423 123.655518,54.8730469 C124.02173,55.1562514 124.290282,55.4760724 124.461182,55.8325195 C124.632081,56.1889666 124.717529,56.6088843 124.717529,57.0922852 L124.717529,57.0922852 Z M132.9646,57.0922852 C132.9646,58.0444384 132.620365,58.7915012 131.931885,59.3334961 C131.243405,59.875491 130.293707,60.1464844 129.082764,60.1464844 C127.87182,60.1464844 126.880619,59.958498 126.109131,59.5825195 L126.109131,57.9272461 C126.597415,58.1567394 127.116208,58.3374017 127.665527,58.4692383 C128.214846,58.6010749 128.726316,58.6669922 129.199951,58.6669922 C129.893314,58.6669922 130.404784,58.5351576 130.734375,58.2714844 C131.063966,58.0078112 131.22876,57.6538108 131.22876,57.2094727 C131.22876,56.80908 131.077394,56.469728 130.774658,56.1914062 C130.471922,55.9130845 129.846929,55.583498 128.899658,55.2026367 C127.923091,54.8071269 127.234621,54.3554713 126.834229,53.8476562 C126.433836,53.3398412 126.233643,52.7294958 126.233643,52.0166016 C126.233643,51.1230424 126.551022,50.4199244 127.185791,49.9072266 C127.82056,49.3945287 128.672602,49.1381836 129.741943,49.1381836 C130.767339,49.1381836 131.787837,49.3627907 132.803467,49.8120117 L132.246826,51.2402344 C131.294673,50.8398417 130.445072,50.6396484 129.697998,50.6396484 C129.131589,50.6396484 128.701906,50.7629382 128.408936,51.0095215 C128.115965,51.2561047 127.969482,51.5820292 127.969482,51.9873047 C127.969482,52.2656264 128.028076,52.5036611 128.145264,52.701416 C128.262452,52.8991709 128.455321,53.0859366 128.723877,53.2617188 C128.992433,53.4375009 129.475827,53.6694322 130.174072,53.9575195 C130.960209,54.2846696 131.536375,54.5898423 131.902588,54.8730469 C132.268801,55.1562514 132.537353,55.4760724 132.708252,55.8325195 C132.879151,56.1889666 132.9646,56.6088843 132.9646,57.0922852 L132.9646,57.0922852 Z M135.037354,60 L135.037354,49.2919922 L136.787842,49.2919922 L136.787842,60 L135.037354,60 Z M145.672119,60 L139.61499,60 L139.61499,49.2919922 L145.672119,49.2919922 L145.672119,50.7714844 L141.365479,50.7714844 L141.365479,53.6865234 L145.401123,53.6865234 L145.401123,55.1513672 L141.365479,55.1513672 L141.365479,58.5131836 L145.672119,58.5131836 L145.672119,60 Z" id="GEM.-DUUR-" fill="#465E63" sketch:type="MSShapeGroup"></path>
                <g id="Group" transform="translate(21.000000, 96.000000)" sketch:type="MSShapeGroup">
                    <path d="M5.5,71.9025163 L31.8373362,49.1506102 L59.9414123,54.5934018 L86.5634782,51.8964448 L112.967683,62.5756559 L139.327483,57.3511842 L167,45.9225167 L167,81.5131964 L6.10473223,81.5131964 C6.10473223,81.5131964 6.03374501,70.7493299 6.03374499,70.7493295" id="Path-641" stroke="#D7EAF2" stroke-width="3" fill="#DFEEF4"></path>
                    <g transform="translate(3.000000, 80.000000)" stroke="#465E63" stroke-linecap="square">
                        <path d="M2.58914729,2.8 L165.05814,2.49999998" id="Line"></path>
                        <path d="M1.94186047,3.7 L1.94186047,1.3" id="Line"></path>
                        <path d="M29.127907,3.7 L29.127907,1.3" id="Line-Copy-7"></path>
                        <path d="M110.686047,3.7 L110.686047,1.3" id="Line-Copy-10"></path>
                        <path d="M56.3139535,3.7 L56.3139535,1.3" id="Line-Copy-8"></path>
                        <path d="M137.872093,3.7 L137.872093,1.3" id="Line-Copy-11"></path>
                        <path d="M83.5,3.7 L83.5,1.3" id="Line-Copy-9"></path>
                        <path d="M165.05814,3.7 L165.05814,1.3" id="Line-Copy-12"></path>
                    </g>
                    <path d="M4.45581055,99 L5.38891602,94.7216797 C5.49471082,94.1927057 5.54760742,93.8499357 5.54760742,93.6933594 C5.54760742,92.9231732 5.22176433,92.5380859 4.57006836,92.5380859 C4.12149841,92.5380859 3.69832556,92.6809068 3.30053711,92.9665527 C2.90274866,93.2521987 2.56632625,93.6510391 2.29125977,94.1630859 C2.01619329,94.6751328 1.80460686,95.2823858 1.65649414,95.9848633 L1.02172852,99 L0.399658203,99 L1.8659668,92.1000977 L2.3737793,92.1000977 L2.16430664,93.4331055 L2.20239258,93.4331055 C2.54093594,92.954913 2.9249653,92.595216 3.35449219,92.3540039 C3.78401907,92.1127918 4.23364023,91.9921875 4.70336914,91.9921875 C5.15193909,91.9921875 5.49682497,92.1339504 5.73803711,92.4174805 C5.97924925,92.7010105 6.10620111,93.1136041 6.11889648,93.6552734 L6.15698242,93.6552734 C6.48283041,93.1093723 6.86580184,92.6957208 7.3059082,92.4143066 C7.74601457,92.1328925 8.21573644,91.9921875 8.71508789,91.9921875 C9.21020755,91.9921875 9.59635278,92.1223132 9.87353516,92.3825684 C10.1507175,92.6428236 10.2893066,93.0162736 10.2893066,93.5029297 C10.2893066,93.6256517 10.284017,93.745198 10.2734375,93.8615723 C10.262858,93.9779465 10.2215987,94.2307923 10.1496582,94.6201172 L9.18481445,99 L8.55004883,99 L9.49584961,94.6835938 C9.60164441,94.1757787 9.65454102,93.8033866 9.65454102,93.5664062 C9.65454102,93.2405583 9.56355885,92.9877125 9.3815918,92.8078613 C9.19962474,92.6280102 8.94783689,92.5380859 8.6262207,92.5380859 C7.96182936,92.5380859 7.37467703,92.8290173 6.86474609,93.4108887 C6.35481516,93.9927601 5.99829203,94.7597609 5.79516602,95.7119141 L5.10327148,99 L4.45581055,99 Z" id="m" fill="#465E63"></path>
                    <path d="M31.0617676,91.9921875 C32.0350797,91.9921875 32.6254059,92.4555618 32.8327637,93.3823242 L32.8581543,93.3823242 C32.9089358,93.1030259 33.2115044,91.683281 33.7658691,89.1230469 L34.3942871,89.1230469 L32.2995605,99 L31.7790527,99 L32.0646973,97.2607422 L32.0266113,97.2607422 C31.2945113,98.504889 30.3973849,99.1269531 29.3352051,99.1269531 C28.1460715,99.1269531 27.5515137,98.3356199 27.5515137,96.7529297 C27.5515137,95.9361938 27.702798,95.1533241 28.0053711,94.4042969 C28.3079442,93.6552697 28.7258274,93.0660015 29.2590332,92.6364746 C29.792239,92.2069477 30.3931444,91.9921875 31.0617676,91.9921875 L31.0617676,91.9921875 Z M29.4812012,98.5556641 C29.8578307,98.5556641 30.2355124,98.4234225 30.6142578,98.1589355 C30.9930032,97.8944485 31.3315415,97.5389834 31.6298828,97.0925293 C31.9282241,96.6460752 32.1535637,96.1573106 32.3059082,95.6262207 C32.4582527,95.0951308 32.5344238,94.6518572 32.5344238,94.2963867 C32.5344238,93.7631809 32.4042982,93.3368343 32.144043,93.017334 C31.8837878,92.6978337 31.5272646,92.5380859 31.0744629,92.5380859 C30.5497207,92.5380859 30.0757671,92.7137027 29.6525879,93.0649414 C29.2294087,93.4161801 28.882407,93.9292772 28.6115723,94.604248 C28.3407376,95.2792189 28.2053223,95.9721644 28.2053223,96.6831055 C28.2053223,97.9314841 28.630611,98.5556641 29.4812012,98.5556641 L29.4812012,98.5556641 Z" id="d" fill="#465E63"></path>
                    <path d="M60.3981934,99 L60.017334,94.6455078 C59.9580889,93.6975864 59.9284668,93.1347665 59.9284668,92.9570312 L59.8903809,92.9570312 C59.7464999,93.3463561 59.4418155,93.9599567 58.9763184,94.7978516 L56.7165527,99 L55.973877,99 L55.8469238,92.1000977 L56.4309082,92.1000977 L56.5134277,97.3115234 L56.4943848,98.3081055 L56.5324707,98.3081055 C56.79061,97.7410453 57.1079897,97.1126337 57.4846191,96.4228516 L59.8522949,92.1000977 L60.3410645,92.1000977 L60.7473145,96.4228516 C60.8065595,97.044925 60.8361816,97.6733367 60.8361816,98.3081055 L60.8742676,98.3081055 L61.0266113,97.9208984 L61.6677246,96.4228516 L63.6989746,92.1000977 L64.3083496,92.1000977 L61.0837402,99 L60.3981934,99 Z" id="w" fill="#465E63"></path>
                    <path d="M86.0617676,91.9921875 C87.0350797,91.9921875 87.6254059,92.4555618 87.8327637,93.3823242 L87.8581543,93.3823242 C87.9089358,93.1030259 88.2115044,91.683281 88.7658691,89.1230469 L89.3942871,89.1230469 L87.2995605,99 L86.7790527,99 L87.0646973,97.2607422 L87.0266113,97.2607422 C86.2945113,98.504889 85.3973849,99.1269531 84.3352051,99.1269531 C83.1460715,99.1269531 82.5515137,98.3356199 82.5515137,96.7529297 C82.5515137,95.9361938 82.702798,95.1533241 83.0053711,94.4042969 C83.3079442,93.6552697 83.7258274,93.0660015 84.2590332,92.6364746 C84.792239,92.2069477 85.3931444,91.9921875 86.0617676,91.9921875 L86.0617676,91.9921875 Z M84.4812012,98.5556641 C84.8578307,98.5556641 85.2355124,98.4234225 85.6142578,98.1589355 C85.9930032,97.8944485 86.3315415,97.5389834 86.6298828,97.0925293 C86.9282241,96.6460752 87.1535637,96.1573106 87.3059082,95.6262207 C87.4582527,95.0951308 87.5344238,94.6518572 87.5344238,94.2963867 C87.5344238,93.7631809 87.4042982,93.3368343 87.144043,93.017334 C86.8837878,92.6978337 86.5272646,92.5380859 86.0744629,92.5380859 C85.5497207,92.5380859 85.0757671,92.7137027 84.6525879,93.0649414 C84.2294087,93.4161801 83.882407,93.9292772 83.6115723,94.604248 C83.3407376,95.2792189 83.2053223,95.9721644 83.2053223,96.6831055 C83.2053223,97.9314841 83.630611,98.5556641 84.4812012,98.5556641 L84.4812012,98.5556641 Z" id="d" fill="#465E63"></path>
                    <path d="M112.411377,99 L111.31958,92.1000977 L111.960693,92.1000977 L112.64624,96.765625 C112.756267,97.4638707 112.82609,98.0013002 112.855713,98.3779297 L112.893799,98.3779297 C113.10962,97.8912736 113.382567,97.3496124 113.712646,96.7529297 L116.289795,92.1000977 L116.937256,92.1000977 L113.128662,99 L112.411377,99 Z" id="v" fill="#465E63"></path>
                    <path d="M143.128174,99 L138.500732,99 L138.595947,98.5429688 L143.521729,92.6269531 L140.074951,92.6269531 L140.182861,92.1000977 L144.365967,92.1000977 L144.251709,92.6269531 L139.414795,98.4667969 L143.236084,98.4667969 L143.128174,99 Z" id="z" fill="#465E63"></path>
                    <path d="M170.128174,99 L165.500732,99 L165.595947,98.5429688 L170.521729,92.6269531 L167.074951,92.6269531 L167.182861,92.1000977 L171.365967,92.1000977 L171.251709,92.6269531 L166.414795,98.4667969 L170.236084,98.4667969 L170.128174,99 Z" id="z" fill="#465E63"></path>
                    <path d="M55.3935547,6.59765625 C55.3935547,8.23340662 55.2267269,9.88133936 54.8930664,11.5415039 C54.5594059,13.2016685 54.0853709,14.609532 53.4709473,15.7651367 C52.8565236,16.9207415 52.1098677,17.7894665 51.230957,18.3713379 C50.3520464,18.9532093 49.3673557,19.2441406 48.2768555,19.2441406 C46.8445566,19.2441406 45.7683141,18.729416 45.0480957,17.6999512 C44.3278773,16.6704864 43.9677734,15.0937606 43.9677734,12.9697266 C43.9677734,11.4560471 44.1488426,9.90373517 44.5109863,8.31274414 C44.8731301,6.72175311 45.3776823,5.36271722 46.0246582,4.2355957 C46.6716341,3.10847418 47.4325314,2.26619745 48.307373,1.70874023 C49.1822147,1.15128302 50.1608019,0.872558594 51.2431641,0.872558594 C54.010105,0.872558594 55.3935547,2.7809054 55.3935547,6.59765625 L55.3935547,6.59765625 Z M51.0966797,1.94677734 C50.0061794,1.94677734 49.0235233,2.40657092 48.1486816,3.32617188 C47.27384,4.24577283 46.5678738,5.58446387 46.0307617,7.34228516 C45.4936497,9.10010645 45.2250977,10.9352118 45.2250977,12.8476562 C45.2250977,14.6543059 45.4794083,15.9929969 45.9880371,16.8637695 C46.496666,17.7345421 47.3002875,18.1699219 48.3989258,18.1699219 C49.5301163,18.1699219 50.5229449,17.7141973 51.3774414,16.8027344 C52.2319379,15.8912715 52.9073868,14.5200287 53.4038086,12.6889648 C53.9002303,10.857901 54.1484375,8.8681748 54.1484375,6.71972656 C54.1484375,5.10025232 53.9063338,3.89990625 53.4221191,3.11865234 C52.9379045,2.33739844 52.1627657,1.94677734 51.0966797,1.94677734 L51.0966797,1.94677734 Z M69.1630859,6.59765625 C69.1630859,8.23340662 68.9962582,9.88133936 68.6625977,11.5415039 C68.3289371,13.2016685 67.8549022,14.609532 67.2404785,15.7651367 C66.6260549,16.9207415 65.8793989,17.7894665 65.0004883,18.3713379 C64.1215776,18.9532093 63.136887,19.2441406 62.0463867,19.2441406 C60.6140879,19.2441406 59.5378454,18.729416 58.817627,17.6999512 C58.0974085,16.6704864 57.7373047,15.0937606 57.7373047,12.9697266 C57.7373047,11.4560471 57.9183738,9.90373517 58.2805176,8.31274414 C58.6426613,6.72175311 59.1472136,5.36271722 59.7941895,4.2355957 C60.4411653,3.10847418 61.2020627,2.26619745 62.0769043,1.70874023 C62.9517459,1.15128302 63.9303331,0.872558594 65.0126953,0.872558594 C67.7796362,0.872558594 69.1630859,2.7809054 69.1630859,6.59765625 L69.1630859,6.59765625 Z M64.8662109,1.94677734 C63.7757107,1.94677734 62.7930545,2.40657092 61.9182129,3.32617188 C61.0433713,4.24577283 60.337405,5.58446387 59.800293,7.34228516 C59.2631809,9.10010645 58.9946289,10.9352118 58.9946289,12.8476562 C58.9946289,14.6543059 59.2489395,15.9929969 59.7575684,16.8637695 C60.2661972,17.7345421 61.0698187,18.1699219 62.168457,18.1699219 C63.2996476,18.1699219 64.2924762,17.7141973 65.1469727,16.8027344 C66.0014691,15.8912715 66.6769181,14.5200287 67.1733398,12.6889648 C67.6697616,10.857901 67.9179688,8.8681748 67.9179688,6.71972656 C67.9179688,5.10025232 67.6758651,3.89990625 67.1916504,3.11865234 C66.7074357,2.33739844 65.932297,1.94677734 64.8662109,1.94677734 L64.8662109,1.94677734 Z M72.9838867,6.92724609 C72.9838867,6.46337659 73.0876454,6.10123828 73.295166,5.84082031 C73.5026866,5.58040234 73.781411,5.45019531 74.1313477,5.45019531 C74.6684597,5.45019531 74.9370117,5.74316113 74.9370117,6.32910156 C74.9370117,6.77669495 74.8352875,7.13883325 74.6318359,7.41552734 C74.4283844,7.69222144 74.1557634,7.83056641 73.8139648,7.83056641 C73.2605767,7.83056641 72.9838867,7.52946265 72.9838867,6.92724609 L72.9838867,6.92724609 Z M71.0551758,18.3286133 C71.0551758,17.8728818 71.1589345,17.512778 71.3664551,17.248291 C71.5739756,16.983804 71.856769,16.8515625 72.2148438,16.8515625 C72.7438177,16.8515625 73.0083008,17.1445283 73.0083008,17.7304688 C73.0083008,18.1780621 72.9045421,18.538166 72.6970215,18.810791 C72.4895009,19.0834161 72.2189144,19.2197266 71.8852539,19.2197266 C71.3318657,19.2197266 71.0551758,18.9226918 71.0551758,18.3286133 L71.0551758,18.3286133 Z M82.2856445,19 L81.0039062,19 L83.7504883,6.12158203 C83.9051115,5.37288037 84.2062152,4.18067224 84.6538086,2.54492188 C84.31201,2.83789209 84.0048028,3.08609924 83.7321777,3.28955078 C83.4595527,3.49300232 82.4443447,4.14810645 80.6865234,5.25488281 L80.0517578,4.30273438 L85.0078125,1.15332031 L86.1064453,1.15332031 L82.2856445,19 Z M102.622559,6.59765625 C102.622559,8.23340662 102.455731,9.88133936 102.12207,11.5415039 C101.78841,13.2016685 101.314375,14.609532 100.699951,15.7651367 C100.085528,16.9207415 99.3388716,17.7894665 98.4599609,18.3713379 C97.5810503,18.9532093 96.5963596,19.2441406 95.5058594,19.2441406 C94.0735605,19.2441406 92.9973181,18.729416 92.2770996,17.6999512 C91.5568812,16.6704864 91.1967773,15.0937606 91.1967773,12.9697266 C91.1967773,11.4560471 91.3778465,9.90373517 91.7399902,8.31274414 C92.102134,6.72175311 92.6066862,5.36271722 93.2536621,4.2355957 C93.900638,3.10847418 94.6615353,2.26619745 95.536377,1.70874023 C96.4112186,1.15128302 97.3898058,0.872558594 98.472168,0.872558594 C101.239109,0.872558594 102.622559,2.7809054 102.622559,6.59765625 L102.622559,6.59765625 Z M98.3256836,1.94677734 C97.2351833,1.94677734 96.2525272,2.40657092 95.3776855,3.32617188 C94.5028439,4.24577283 93.7968777,5.58446387 93.2597656,7.34228516 C92.7226536,9.10010645 92.4541016,10.9352118 92.4541016,12.8476562 C92.4541016,14.6543059 92.7084122,15.9929969 93.217041,16.8637695 C93.7256699,17.7345421 94.5292914,18.1699219 95.6279297,18.1699219 C96.7591202,18.1699219 97.7519489,17.7141973 98.6064453,16.8027344 C99.4609418,15.8912715 100.136391,14.5200287 100.632812,12.6889648 C101.129234,10.857901 101.377441,8.8681748 101.377441,6.71972656 C101.377441,5.10025232 101.135338,3.89990625 100.651123,3.11865234 C100.166908,2.33739844 99.3917697,1.94677734 98.3256836,1.94677734 L98.3256836,1.94677734 Z M106.443359,6.92724609 C106.443359,6.46337659 106.547118,6.10123828 106.754639,5.84082031 C106.962159,5.58040234 107.240884,5.45019531 107.59082,5.45019531 C108.127932,5.45019531 108.396484,5.74316113 108.396484,6.32910156 C108.396484,6.77669495 108.29476,7.13883325 108.091309,7.41552734 C107.887857,7.69222144 107.615236,7.83056641 107.273438,7.83056641 C106.720049,7.83056641 106.443359,7.52946265 106.443359,6.92724609 L106.443359,6.92724609 Z M104.514648,18.3286133 C104.514648,17.8728818 104.618407,17.512778 104.825928,17.248291 C105.033448,16.983804 105.316242,16.8515625 105.674316,16.8515625 C106.20329,16.8515625 106.467773,17.1445283 106.467773,17.7304688 C106.467773,18.1780621 106.364015,18.538166 106.156494,18.810791 C105.948974,19.0834161 105.678387,19.2197266 105.344727,19.2197266 C104.791338,19.2197266 104.514648,18.9226918 104.514648,18.3286133 L104.514648,18.3286133 Z M115.745117,19 L114.463379,19 L117.209961,6.12158203 C117.364584,5.37288037 117.665688,4.18067224 118.113281,2.54492188 C117.771483,2.83789209 117.464275,3.08609924 117.19165,3.28955078 C116.919025,3.49300232 115.903817,4.14810645 114.145996,5.25488281 L113.51123,4.30273438 L118.467285,1.15332031 L119.565918,1.15332031 L115.745117,19 Z M130.063965,8.27001953 C131.59392,8.27001953 132.784094,8.68505444 133.634521,9.51513672 C134.484949,10.345219 134.910156,11.4804615 134.910156,12.9208984 C134.910156,14.849619 134.307949,16.3856551 133.103516,17.5290527 C131.899083,18.6724504 130.243012,19.2441406 128.135254,19.2441406 C127.451657,19.2441406 126.729415,19.1627612 125.968506,19 C125.207597,18.8372388 124.562665,18.6297213 124.033691,18.3774414 L124.033691,17.0712891 C125.417162,17.8037146 126.800612,18.1699219 128.184082,18.1699219 C129.876799,18.1699219 131.213455,17.7040248 132.194092,16.7722168 C133.174728,15.8404088 133.665039,14.5647867 133.665039,12.9453125 C133.665039,11.8059839 133.319177,10.912845 132.627441,10.2658691 C131.935706,9.61889325 131.020188,9.29541016 129.880859,9.29541016 C128.798497,9.29541016 127.809738,9.46223792 126.914551,9.79589844 L126.108887,9.19775391 L128.464844,1.15332031 L136.082031,1.15332031 L135.862305,2.32519531 L129.258301,2.32519531 L127.439453,8.62402344 C128.236983,8.38801965 129.111812,8.27001953 130.063965,8.27001953 L130.063965,8.27001953 Z" id="00:10:15" fill="#465E63"></path>
                </g>
            </g>
        </g>
    </g>
</svg>