<?xml version="1.0" encoding="UTF-8" standalone="no"?>
<svg width="216px" height="216px" viewBox="0 0 216 216" version="1.1" xmlns="http://www.w3.org/2000/svg" xmlns:xlink="http://www.w3.org/1999/xlink" xmlns:sketch="http://www.bohemiancoding.com/sketch/ns">
    <!-- Generator: Sketch 3.4.2 (15855) - http://www.bohemiancoding.com/sketch -->
    <title>Rectangle 94 Copy 3 + NIVEAU + Group</title>
    <desc>Created with Sketch.</desc>
    <defs></defs>
    <g id="Def-Desktop" stroke="none" stroke-width="1" fill="none" fill-rule="evenodd" sketch:type="MSPage">
        <g id="Dashboard" sketch:type="MSArtboardGroup" transform="translate(-989.000000, -578.000000)">
            <g id="Rectangle-94-Copy-3-+-NIVEAU-+-Group" sketch:type="MSLayerGroup" transform="translate(989.000000, 578.000000)">
                <rect id="Rectangle-94-Copy-3" fill="#F2F8FA" sketch:type="MSShapeGroup" x="0" y="0" width="216" height="216" rx="1"></rect>
                <path d="M90.7954102,36 L88.6494141,36 L83.3833008,27.4672852 L83.324707,27.4672852 L83.3613281,27.9433594 C83.4296878,28.851567 83.4638672,29.6816369 83.4638672,30.4335938 L83.4638672,36 L81.8745117,36 L81.8745117,25.2919922 L83.9985352,25.2919922 L89.25,33.7807617 L89.2939453,33.7807617 C89.2841796,33.6684565 89.2646486,33.259525 89.2353516,32.5539551 C89.2060545,31.8483851 89.1914062,31.2978535 89.1914062,30.9023438 L89.1914062,25.2919922 L90.7954102,25.2919922 L90.7954102,36 Z M93.6225586,36 L93.6225586,25.2919922 L95.3730469,25.2919922 L95.3730469,36 L93.6225586,36 Z M104.30127,25.2919922 L106.117676,25.2919922 L102.367676,36 L100.521973,36 L96.7866211,25.2919922 L98.5883789,25.2919922 L100.822266,31.949707 C100.939454,32.2670914 101.063964,32.6760229 101.195801,33.1765137 C101.327637,33.6770045 101.413086,34.0493152 101.452148,34.293457 C101.515625,33.9223614 101.613281,33.4926782 101.745117,33.0043945 C101.876954,32.5161108 101.984375,32.1547863 102.067383,31.9204102 L104.30127,25.2919922 Z M113.588379,36 L107.53125,36 L107.53125,25.2919922 L113.588379,25.2919922 L113.588379,26.7714844 L109.281738,26.7714844 L109.281738,29.6865234 L113.317383,29.6865234 L113.317383,31.1513672 L109.281738,31.1513672 L109.281738,34.5131836 L113.588379,34.5131836 L113.588379,36 Z M122.545898,36 L121.476562,33.0263672 L117.382324,33.0263672 L116.334961,36 L114.489258,36 L118.495605,25.2480469 L120.399902,25.2480469 L124.40625,36 L122.545898,36 Z M121.015137,31.5175781 L120.011719,28.6025391 C119.938476,28.4072256 119.837159,28.0996115 119.707764,27.6796875 C119.578368,27.2597635 119.489258,26.9521494 119.44043,26.7568359 C119.308593,27.3574249 119.115724,28.0141566 118.861816,28.7270508 L117.89502,31.5175781 L121.015137,31.5175781 Z M134.213379,25.2919922 L134.213379,32.2207031 C134.213379,33.0117227 134.043703,33.7038545 133.704346,34.2971191 C133.364989,34.8903838 132.874271,35.3469222 132.232178,35.666748 C131.590085,35.9865739 130.82227,36.1464844 129.928711,36.1464844 C128.600579,36.1464844 127.567875,35.7949254 126.830566,35.0917969 C126.093258,34.3886684 125.724609,33.4218812 125.724609,32.1914062 L125.724609,25.2919922 L127.482422,25.2919922 L127.482422,32.0668945 C127.482422,32.950688 127.687498,33.602537 128.097656,34.0224609 C128.507815,34.4423849 129.137691,34.6523438 129.987305,34.6523438 C131.637704,34.6523438 132.462891,33.7856532 132.462891,32.0522461 L132.462891,25.2919922 L134.213379,25.2919922 Z" id="NIVEAU" fill="#465E63" sketch:type="MSShapeGroup"></path>
                <g id="Group" transform="translate(47.000000, 73.000000)" sketch:type="MSShapeGroup">
                    <rect id="Rectangle-293" fill="#1D545B" x="0" y="0" width="48" height="123"></rect>
                    <rect id="Rectangle-293-Copy" fill="#639296" x="0" y="35" width="48" height="88"></rect>
                    <rect id="Rectangle-293-Copy-2" fill="#96C4DC" x="0" y="52" width="48" height="71"></rect>
                    <path d="M63.5957031,21 L64.6870117,15.9316406 C64.7895513,15.4824196 64.8408203,15.1015641 64.8408203,14.7890625 C64.8408203,14.3984355 64.7346202,14.0932628 64.5222168,13.8735352 C64.3098134,13.6538075 63.9814475,13.5439453 63.5371094,13.5439453 C62.9902316,13.5439453 62.4763208,13.7075179 61.9953613,14.034668 C61.5144019,14.361818 61.1091325,14.8207978 60.779541,15.4116211 C60.4499495,16.0024444 60.1972665,16.7006796 60.0214844,17.5063477 L59.2744141,21 L58.5566406,21 L60.9882812,9.60351562 L61.6914062,9.60351562 L61.0615234,12.6137695 C60.8466786,13.5903369 60.6855474,14.2714824 60.578125,14.6572266 L60.6220703,14.6572266 C61.0029316,14.105466 61.4582493,13.6770035 61.9880371,13.3718262 C62.5178249,13.0666489 63.078122,12.9140625 63.6689453,12.9140625 C64.2744171,12.9140625 64.7431624,13.0727523 65.0751953,13.3901367 C65.4072282,13.7075211 65.5732422,14.154294 65.5732422,14.7304688 C65.5732422,15.0722673 65.514649,15.5165988 65.3974609,16.0634766 L64.3134766,21 L63.5957031,21 Z M71.125,12.8847656 C72.0039106,12.8847656 72.6838355,13.1496556 73.1647949,13.6794434 C73.6457544,14.2092312 73.8862305,14.940425 73.8862305,15.8730469 C73.8862305,16.8349657 73.7116717,17.734615 73.3625488,18.5720215 C73.013426,19.409428 72.5361358,20.0478494 71.9306641,20.4873047 C71.3251923,20.92676 70.6269571,21.1464844 69.8359375,21.1464844 C68.9374955,21.1464844 68.2551293,20.8791531 67.7888184,20.3444824 C67.3225074,19.8098118 67.0893555,19.0444386 67.0893555,18.0483398 C67.0893555,17.115718 67.2675763,16.2417033 67.6240234,15.4262695 C67.9804705,14.6108358 68.4614228,13.9834006 69.0668945,13.5439453 C69.6723663,13.10449 70.3583946,12.8847656 71.125,12.8847656 L71.125,12.8847656 Z M71.0664062,13.5146484 C70.4609345,13.5146484 69.9165063,13.7062969 69.4331055,14.0895996 C68.9497046,14.4729023 68.5639663,15.0222132 68.2758789,15.7375488 C67.9877915,16.4528844 67.84375,17.2109335 67.84375,18.0117188 C67.84375,19.681649 68.5322197,20.5166016 69.9091797,20.5166016 C70.5293,20.5166016 71.0798316,20.3273945 71.560791,19.9489746 C72.0417505,19.5705547 72.4250474,19.0139197 72.7106934,18.2790527 C72.9963393,17.5441858 73.1391602,16.7373091 73.1391602,15.8583984 C73.1391602,15.1064416 72.9609393,14.5278341 72.6044922,14.1225586 C72.2480451,13.7172831 71.7353549,13.5146484 71.0664062,13.5146484 L71.0664062,13.5146484 Z M79.3574219,12.8847656 C80.2363325,12.8847656 80.9162574,13.1496556 81.3972168,13.6794434 C81.8781762,14.2092312 82.1186523,14.940425 82.1186523,15.8730469 C82.1186523,16.8349657 81.9440935,17.734615 81.5949707,18.5720215 C81.2458479,19.409428 80.7685577,20.0478494 80.1630859,20.4873047 C79.5576142,20.92676 78.859379,21.1464844 78.0683594,21.1464844 C77.1699174,21.1464844 76.4875512,20.8791531 76.0212402,20.3444824 C75.5549293,19.8098118 75.3217773,19.0444386 75.3217773,18.0483398 C75.3217773,17.115718 75.4999982,16.2417033 75.8564453,15.4262695 C76.2128924,14.6108358 76.6938446,13.9834006 77.2993164,13.5439453 C77.9047882,13.10449 78.5908165,12.8847656 79.3574219,12.8847656 L79.3574219,12.8847656 Z M79.2988281,13.5146484 C78.6933563,13.5146484 78.1489282,13.7062969 77.6655273,14.0895996 C77.1821265,14.4729023 76.7963882,15.0222132 76.5083008,15.7375488 C76.2202134,16.4528844 76.0761719,17.2109335 76.0761719,18.0117188 C76.0761719,19.681649 76.7646416,20.5166016 78.1416016,20.5166016 C78.7617219,20.5166016 79.3122535,20.3273945 79.7932129,19.9489746 C80.2741723,19.5705547 80.6574693,19.0139197 80.9431152,18.2790527 C81.2287612,17.5441858 81.371582,16.7373091 81.371582,15.8583984 C81.371582,15.1064416 81.1933612,14.5278341 80.8369141,14.1225586 C80.480467,13.7172831 79.9677768,13.5146484 79.2988281,13.5146484 L79.2988281,13.5146484 Z M90.8930664,13.0385742 L90.7685547,13.6171875 L88.9887695,13.6977539 C89.1157233,13.8344733 89.2219234,14.0395494 89.307373,14.3129883 C89.3928227,14.5864271 89.4355469,14.8647447 89.4355469,15.1479492 C89.4355469,15.6801784 89.3024916,16.1843238 89.036377,16.6604004 C88.7702623,17.136477 88.4089378,17.491698 87.9523926,17.7260742 C87.4958473,17.9604504 86.9746123,18.0776367 86.3886719,18.0776367 C86.0810531,18.0776367 85.8930667,18.0556643 85.824707,18.0117188 C85.4340801,18.1728524 85.1313487,18.3510732 84.9165039,18.5463867 C84.7016591,18.7417002 84.5942383,18.9394521 84.5942383,19.1396484 C84.5942383,19.3398448 84.6711418,19.4973139 84.8249512,19.6120605 C84.9787605,19.7268072 85.2558574,19.8037107 85.65625,19.8427734 L86.5424805,19.9233398 C88.231942,20.0747078 89.0766602,20.7192326 89.0766602,21.8569336 C89.0766602,22.4038113 88.9179703,22.8859842 88.6005859,23.3034668 C88.2832015,23.7209494 87.8266631,24.0419911 87.230957,24.2666016 C86.6352509,24.4912121 85.9248088,24.6035156 85.0996094,24.6035156 C84.1914017,24.6035156 83.4797389,24.4277361 82.9645996,24.0761719 C82.4494603,23.7246076 82.1918945,23.2290071 82.1918945,22.5893555 C82.1918945,21.437006 82.9462815,20.6215844 84.4550781,20.1430664 C84.0742168,19.9379873 83.8837891,19.6376973 83.8837891,19.2421875 C83.8837891,18.6415986 84.350093,18.1484394 85.2827148,17.7626953 C84.9360334,17.5869132 84.6662607,17.3293474 84.4733887,16.9899902 C84.2805166,16.6506331 84.184082,16.2661154 84.184082,15.8364258 C84.184082,15.2944309 84.314696,14.796389 84.5759277,14.3422852 C84.8371595,13.8881813 85.198484,13.5317396 85.6599121,13.2729492 C86.1213402,13.0141589 86.6254855,12.8847656 87.1723633,12.8847656 C87.509279,12.8847656 87.8681622,12.9360346 88.2490234,13.0385742 L90.8930664,13.0385742 Z M82.9389648,22.5161133 C82.9389648,23.0092798 83.1367168,23.3754871 83.5322266,23.6147461 C83.9277364,23.8540051 84.4746059,23.9736328 85.1728516,23.9736328 C86.1640675,23.9736328 86.9379855,23.7917499 87.4946289,23.4279785 C88.0512723,23.0642072 88.3295898,22.5649446 88.3295898,21.9301758 C88.3295898,21.5151346 88.1770035,21.1965343 87.8718262,20.9743652 C87.5666489,20.7521962 87.0332069,20.6118167 86.2714844,20.5532227 L85.0996094,20.4433594 C84.333004,20.663087 83.7812517,20.9426253 83.4443359,21.2819824 C83.1074202,21.6213396 82.9389648,22.0327124 82.9389648,22.5161133 L82.9389648,22.5161133 Z M84.9238281,15.7924805 C84.9238281,16.3393582 85.066649,16.7543931 85.3522949,17.0375977 C85.6379409,17.3208022 86.0395482,17.4624023 86.5571289,17.4624023 C86.9868186,17.4624023 87.3627914,17.3720712 87.6850586,17.1914062 C88.0073258,17.0107413 88.2575675,16.7324238 88.435791,16.3564453 C88.6140146,15.9804669 88.703125,15.5678733 88.703125,15.1186523 C88.703125,14.6108373 88.5664076,14.2165541 88.2929688,13.935791 C88.0195299,13.6550279 87.6362329,13.5146484 87.1430664,13.5146484 C86.6889626,13.5146484 86.2959001,13.6196279 85.9638672,13.8295898 C85.6318343,14.0395518 85.3754892,14.3227521 85.1948242,14.6791992 C85.0141593,15.0356463 84.9238281,15.4067364 84.9238281,15.7924805 L84.9238281,15.7924805 Z" id="hoog" fill="#1D545B"></path>
                    <path d="M66.0566406,39.0385742 L65.9321289,39.6171875 L64.1523438,39.6977539 C64.2792975,39.8344733 64.3854976,40.0395494 64.4709473,40.3129883 C64.5563969,40.5864271 64.5991211,40.8647447 64.5991211,41.1479492 C64.5991211,41.6801784 64.4660658,42.1843238 64.1999512,42.6604004 C63.9338366,43.136477 63.572512,43.491698 63.1159668,43.7260742 C62.6594215,43.9604504 62.1381865,44.0776367 61.5522461,44.0776367 C61.2446274,44.0776367 61.056641,44.0556643 60.9882812,44.0117188 C60.5976543,44.1728524 60.2949229,44.3510732 60.0800781,44.5463867 C59.8652333,44.7417002 59.7578125,44.9394521 59.7578125,45.1396484 C59.7578125,45.3398448 59.834716,45.4973139 59.9885254,45.6120605 C60.1423348,45.7268072 60.4194316,45.8037107 60.8198242,45.8427734 L61.7060547,45.9233398 C63.3955163,46.0747078 64.2402344,46.7192326 64.2402344,47.8569336 C64.2402344,48.4038113 64.0815446,48.8859842 63.7641602,49.3034668 C63.4467758,49.7209494 62.9902374,50.0419911 62.3945312,50.2666016 C61.7988251,50.4912121 61.088383,50.6035156 60.2631836,50.6035156 C59.3549759,50.6035156 58.6433131,50.4277361 58.1281738,50.0761719 C57.6130345,49.7246076 57.3554688,49.2290071 57.3554688,48.5893555 C57.3554688,47.437006 58.1098557,46.6215844 59.6186523,46.1430664 C59.2377911,45.9379873 59.0473633,45.6376973 59.0473633,45.2421875 C59.0473633,44.6415986 59.5136672,44.1484394 60.4462891,43.7626953 C60.0996076,43.5869132 59.8298349,43.3293474 59.6369629,42.9899902 C59.4440908,42.6506331 59.3476562,42.2661154 59.3476562,41.8364258 C59.3476562,41.2944309 59.4782702,40.796389 59.739502,40.3422852 C60.0007337,39.8881813 60.3620582,39.5317396 60.8234863,39.2729492 C61.2849144,39.0141589 61.7890598,38.8847656 62.3359375,38.8847656 C62.6728532,38.8847656 63.0317364,38.9360346 63.4125977,39.0385742 L66.0566406,39.0385742 Z M58.1025391,48.5161133 C58.1025391,49.0092798 58.300291,49.3754871 58.6958008,49.6147461 C59.0913106,49.8540051 59.6381801,49.9736328 60.3364258,49.9736328 C61.3276417,49.9736328 62.1015597,49.7917499 62.6582031,49.4279785 C63.2148465,49.0642072 63.4931641,48.5649446 63.4931641,47.9301758 C63.4931641,47.5151346 63.3405777,47.1965343 63.0354004,46.9743652 C62.7302231,46.7521962 62.1967812,46.6118167 61.4350586,46.5532227 L60.2631836,46.4433594 C59.4965782,46.663087 58.9448259,46.9426253 58.6079102,47.2819824 C58.2709944,47.6213396 58.1025391,48.0327124 58.1025391,48.5161133 L58.1025391,48.5161133 Z M60.0874023,41.7924805 C60.0874023,42.3393582 60.2302232,42.7543931 60.5158691,43.0375977 C60.8015151,43.3208022 61.2031224,43.4624023 61.7207031,43.4624023 C62.1503928,43.4624023 62.5263656,43.3720712 62.8486328,43.1914062 C63.1709,43.0107413 63.4211417,42.7324238 63.5993652,42.3564453 C63.7775888,41.9804669 63.8666992,41.5678733 63.8666992,41.1186523 C63.8666992,40.6108373 63.7299818,40.2165541 63.456543,39.935791 C63.1831041,39.6550279 62.7998072,39.5146484 62.3066406,39.5146484 C61.8525368,39.5146484 61.4594743,39.6196279 61.1274414,39.8295898 C60.7954085,40.0395518 60.5390634,40.3227521 60.3583984,40.6791992 C60.1777335,41.0356463 60.0874023,41.4067364 60.0874023,41.7924805 L60.0874023,41.7924805 Z M69.0522461,47.1464844 C68.2075153,47.1464844 67.5483422,46.8791531 67.074707,46.3444824 C66.6010719,45.8098118 66.3642578,45.0639696 66.3642578,44.1069336 C66.3642578,43.2231401 66.5375959,42.3759806 66.8842773,41.5654297 C67.2309588,40.7548788 67.7082489,40.110354 68.3161621,39.6318359 C68.9240753,39.1533179 69.5942346,38.9140625 70.3266602,38.9140625 C70.8833036,38.9140625 71.3276351,39.0629868 71.659668,39.3608398 C71.9917009,39.6586929 72.1577148,40.0639623 72.1577148,40.5766602 C72.1577148,41.4604536 71.7585489,42.134275 70.9602051,42.5981445 C70.1618612,43.062014 68.9765704,43.2939453 67.4042969,43.2939453 L67.1625977,43.2939453 C67.1333006,43.5087901 67.1186523,43.7480456 67.1186523,44.0117188 C67.1186523,44.8173868 67.2993146,45.4313944 67.6606445,45.8537598 C68.0219745,46.2761252 68.5419888,46.4873047 69.2207031,46.4873047 C69.8652376,46.4873047 70.539059,46.3090838 71.2421875,45.9526367 L71.2421875,46.6411133 C70.5585903,46.978029 69.8286172,47.1464844 69.0522461,47.1464844 L69.0522461,47.1464844 Z M70.2387695,39.5439453 C69.5991179,39.5439453 69.0046414,39.8259249 68.4553223,40.3898926 C67.9060031,40.9538602 67.5092786,41.7070265 67.2651367,42.6494141 L67.6240234,42.6494141 C70.1484501,42.6494141 71.4106445,41.990241 71.4106445,40.671875 C71.4106445,40.3447249 71.3044444,40.0749522 71.092041,39.8625488 C70.8796376,39.6501454 70.5952166,39.5439453 70.2387695,39.5439453 L70.2387695,39.5439453 Z M77.621582,47 L78.6982422,42.0634766 C78.8203131,41.4531219 78.8813477,41.0576181 78.8813477,40.8769531 C78.8813477,39.9882768 78.5053749,39.5439453 77.753418,39.5439453 C77.2358373,39.5439453 76.7475609,39.7087386 76.2885742,40.0383301 C75.8295875,40.3679216 75.4414078,40.828122 75.1240234,41.4189453 C74.806639,42.0097686 74.5625009,42.7104452 74.3916016,43.5209961 L73.6591797,47 L72.9414062,47 L74.6333008,39.0385742 L75.2192383,39.0385742 L74.9775391,40.5766602 L75.0214844,40.5766602 C75.4121113,40.0248996 75.8552221,39.6098647 76.3508301,39.331543 C76.846438,39.0532213 77.3652317,38.9140625 77.9072266,38.9140625 C78.4248073,38.9140625 78.8227525,39.0776351 79.1010742,39.4047852 C79.3793959,39.7319352 79.5258788,40.2080047 79.5405273,40.8330078 L79.5844727,40.8330078 C79.9604511,40.2031219 80.4023412,39.7258317 80.9101562,39.401123 C81.4179713,39.0764144 81.9599581,38.9140625 82.5361328,38.9140625 C83.1074247,38.9140625 83.5529769,39.0642075 83.8728027,39.364502 C84.1926286,39.6647964 84.3525391,40.0957003 84.3525391,40.6572266 C84.3525391,40.7988288 84.3464356,40.9367669 84.3342285,41.0710449 C84.3220214,41.2053229 84.2744145,41.4970681 84.1914062,41.9462891 L83.078125,47 L82.3457031,47 L83.4370117,42.0195312 C83.5590826,41.4335908 83.6201172,41.0039076 83.6201172,40.7304688 C83.6201172,40.3544903 83.5151378,40.0627452 83.3051758,39.8552246 C83.0952138,39.647704 82.8046894,39.5439453 82.4335938,39.5439453 C81.6669884,39.5439453 80.9895049,39.8796353 80.401123,40.5510254 C79.8127412,41.2224155 79.4013684,42.1074164 79.1669922,43.2060547 L78.3686523,47 L77.621582,47 Z M86.5131836,47 L85.7954102,47 L87.4873047,39.0385742 L88.1904297,39.0385742 L86.5131836,47 Z M87.8022461,36.9951172 C87.8022461,36.7265612 87.8559565,36.5117196 87.9633789,36.3505859 C88.0708013,36.1894523 88.2172842,36.1088867 88.402832,36.1088867 C88.6811537,36.1088867 88.8203125,36.2846662 88.8203125,36.6362305 C88.8203125,36.9145522 88.7666021,37.1342765 88.6591797,37.2954102 C88.5517573,37.4565438 88.4125985,37.5371094 88.2416992,37.5371094 C88.1000969,37.5371094 87.9914555,37.4895024 87.9157715,37.3942871 C87.8400875,37.2990718 87.8022461,37.1660165 87.8022461,36.9951172 L87.8022461,36.9951172 Z M93.5151367,38.9140625 C94.6381892,38.9140625 95.3193347,39.4487251 95.5585938,40.5180664 L95.5878906,40.5180664 C95.6464847,40.1957992 95.9956023,38.557632 96.6352539,35.6035156 L97.3603516,35.6035156 L94.9433594,47 L94.3427734,47 L94.6723633,44.9931641 L94.628418,44.9931641 C93.7836872,46.4287181 92.7485413,47.1464844 91.5229492,47.1464844 C90.150872,47.1464844 89.4648438,46.2334076 89.4648438,44.4072266 C89.4648438,43.464839 89.6394026,42.5615278 89.9885254,41.6972656 C90.3376482,40.8330035 90.8198211,40.1530786 91.4350586,39.6574707 C92.050296,39.1618628 92.7436485,38.9140625 93.5151367,38.9140625 L93.5151367,38.9140625 Z M91.6914062,46.4873047 C92.1259787,46.4873047 92.5617654,46.3347183 92.9987793,46.029541 C93.4357932,45.7243637 93.8264143,45.3142116 94.1706543,44.7990723 C94.5148943,44.283933 94.7749015,43.7199738 94.9506836,43.1071777 C95.1264657,42.4943817 95.2143555,41.9829122 95.2143555,41.5727539 C95.2143555,40.9575165 95.0642105,40.465578 94.763916,40.0969238 C94.4636215,39.7282696 94.0522487,39.5439453 93.5297852,39.5439453 C92.9243134,39.5439453 92.3774438,39.74658 91.8891602,40.1518555 C91.4008765,40.5571309 91.0004898,41.149166 90.6879883,41.9279785 C90.3754867,42.706791 90.2192383,43.5063436 90.2192383,44.3266602 C90.2192383,45.767097 90.709956,46.4873047 91.6914062,46.4873047 L91.6914062,46.4873047 Z M101.813477,38.9140625 C102.936529,38.9140625 103.617675,39.4487251 103.856934,40.5180664 L103.88623,40.5180664 C103.944825,40.1957992 104.293942,38.557632 104.933594,35.6035156 L105.658691,35.6035156 L103.241699,47 L102.641113,47 L102.970703,44.9931641 L102.926758,44.9931641 C102.082027,46.4287181 101.046881,47.1464844 99.8212891,47.1464844 C98.4492119,47.1464844 97.7631836,46.2334076 97.7631836,44.4072266 C97.7631836,43.464839 97.9377424,42.5615278 98.2868652,41.6972656 C98.6359881,40.8330035 99.118161,40.1530786 99.7333984,39.6574707 C100.348636,39.1618628 101.041988,38.9140625 101.813477,38.9140625 L101.813477,38.9140625 Z M99.9897461,46.4873047 C100.424319,46.4873047 100.860105,46.3347183 101.297119,46.029541 C101.734133,45.7243637 102.124754,45.3142116 102.468994,44.7990723 C102.813234,44.283933 103.073241,43.7199738 103.249023,43.1071777 C103.424806,42.4943817 103.512695,41.9829122 103.512695,41.5727539 C103.512695,40.9575165 103.36255,40.465578 103.062256,40.0969238 C102.761961,39.7282696 102.350589,39.5439453 101.828125,39.5439453 C101.222653,39.5439453 100.675784,39.74658 100.1875,40.1518555 C99.6992163,40.5571309 99.2988297,41.149166 98.9863281,41.9279785 C98.6738266,42.706791 98.5175781,43.5063436 98.5175781,44.3266602 C98.5175781,45.767097 99.0082959,46.4873047 99.9897461,46.4873047 L99.9897461,46.4873047 Z M108.749512,47.1464844 C107.904781,47.1464844 107.245608,46.8791531 106.771973,46.3444824 C106.298337,45.8098118 106.061523,45.0639696 106.061523,44.1069336 C106.061523,43.2231401 106.234862,42.3759806 106.581543,41.5654297 C106.928224,40.7548788 107.405515,40.110354 108.013428,39.6318359 C108.621341,39.1533179 109.2915,38.9140625 110.023926,38.9140625 C110.580569,38.9140625 111.024901,39.0629868 111.356934,39.3608398 C111.688967,39.6586929 111.85498,40.0639623 111.85498,40.5766602 C111.85498,41.4604536 111.455815,42.134275 110.657471,42.5981445 C109.859127,43.062014 108.673836,43.2939453 107.101562,43.2939453 L106.859863,43.2939453 C106.830566,43.5087901 106.815918,43.7480456 106.815918,44.0117188 C106.815918,44.8173868 106.99658,45.4313944 107.35791,45.8537598 C107.71924,46.2761252 108.239254,46.4873047 108.917969,46.4873047 C109.562503,46.4873047 110.236325,46.3090838 110.939453,45.9526367 L110.939453,46.6411133 C110.255856,46.978029 109.525883,47.1464844 108.749512,47.1464844 L108.749512,47.1464844 Z M109.936035,39.5439453 C109.296384,39.5439453 108.701907,39.8259249 108.152588,40.3898926 C107.603269,40.9538602 107.206544,41.7070265 106.962402,42.6494141 L107.321289,42.6494141 C109.845716,42.6494141 111.10791,41.990241 111.10791,40.671875 C111.10791,40.3447249 111.00171,40.0749522 110.789307,39.8625488 C110.576903,39.6501454 110.292482,39.5439453 109.936035,39.5439453 L109.936035,39.5439453 Z M113.356445,47 L112.667969,47 L115.114258,35.6035156 L115.802734,35.6035156 L113.356445,47 Z M120.387695,38.9140625 C121.510748,38.9140625 122.191893,39.4487251 122.431152,40.5180664 L122.460449,40.5180664 C122.519043,40.1957992 122.868161,38.557632 123.507812,35.6035156 L124.23291,35.6035156 L121.815918,47 L121.215332,47 L121.544922,44.9931641 L121.500977,44.9931641 C120.656246,46.4287181 119.6211,47.1464844 118.395508,47.1464844 C117.023431,47.1464844 116.337402,46.2334076 116.337402,44.4072266 C116.337402,43.464839 116.511961,42.5615278 116.861084,41.6972656 C117.210207,40.8330035 117.69238,40.1530786 118.307617,39.6574707 C118.922855,39.1618628 119.616207,38.9140625 120.387695,38.9140625 L120.387695,38.9140625 Z M118.563965,46.4873047 C118.998537,46.4873047 119.434324,46.3347183 119.871338,46.029541 C120.308352,45.7243637 120.698973,45.3142116 121.043213,44.7990723 C121.387453,44.283933 121.64746,43.7199738 121.823242,43.1071777 C121.999024,42.4943817 122.086914,41.9829122 122.086914,41.5727539 C122.086914,40.9575165 121.936769,40.465578 121.636475,40.0969238 C121.33618,39.7282696 120.924807,39.5439453 120.402344,39.5439453 C119.796872,39.5439453 119.250002,39.74658 118.761719,40.1518555 C118.273435,40.5571309 117.873048,41.149166 117.560547,41.9279785 C117.248045,42.706791 117.091797,43.5063436 117.091797,44.3266602 C117.091797,45.767097 117.582515,46.4873047 118.563965,46.4873047 L118.563965,46.4873047 Z" id="gemiddeld" fill="#465E63"></path>
                    <path d="M56.7841797,97.6035156 C56.4814438,97.6035156 56.2055677,97.5571294 55.956543,97.4643555 L55.956543,96.7905273 C56.1860363,96.8979498 56.4619125,96.9516602 56.7841797,96.9516602 C57.1845723,96.9516602 57.4982899,96.825929 57.7253418,96.5744629 C57.9523937,96.3229968 58.1293939,95.8896515 58.2563477,95.2744141 L60.2045898,86.0385742 L60.9077148,86.0385742 L58.9448242,95.3476562 C58.7739249,96.1533243 58.5139178,96.7307111 58.1647949,97.079834 C57.8156721,97.4289568 57.3554716,97.6035156 56.7841797,97.6035156 L56.7841797,97.6035156 Z M60.5634766,83.9951172 C60.5634766,83.7265612 60.617187,83.5117196 60.7246094,83.3505859 C60.8320318,83.1894523 60.9785147,83.1088867 61.1640625,83.1088867 C61.4423842,83.1088867 61.581543,83.2846662 61.581543,83.6362305 C61.581543,83.9145522 61.5278326,84.1342765 61.4204102,84.2954102 C61.3129877,84.4565438 61.173829,84.5371094 61.0029297,84.5371094 C60.8613274,84.5371094 60.7526859,84.4895024 60.677002,84.3942871 C60.601318,84.2990718 60.5634766,84.1660165 60.5634766,83.9951172 L60.5634766,83.9951172 Z M66.2324219,85.8847656 C67.1113325,85.8847656 67.7912574,86.1496556 68.2722168,86.6794434 C68.7531762,87.2092312 68.9936523,87.940425 68.9936523,88.8730469 C68.9936523,89.8349657 68.8190935,90.734615 68.4699707,91.5720215 C68.1208479,92.409428 67.6435577,93.0478494 67.0380859,93.4873047 C66.4326142,93.92676 65.734379,94.1464844 64.9433594,94.1464844 C64.0449174,94.1464844 63.3625512,93.8791531 62.8962402,93.3444824 C62.4299293,92.8098118 62.1967773,92.0444386 62.1967773,91.0483398 C62.1967773,90.115718 62.3749982,89.2417033 62.7314453,88.4262695 C63.0878924,87.6108358 63.5688446,86.9834006 64.1743164,86.5439453 C64.7797882,86.10449 65.4658165,85.8847656 66.2324219,85.8847656 L66.2324219,85.8847656 Z M66.1738281,86.5146484 C65.5683563,86.5146484 65.0239282,86.7062969 64.5405273,87.0895996 C64.0571265,87.4729023 63.6713882,88.0222132 63.3833008,88.7375488 C63.0952134,89.4528844 62.9511719,90.2109335 62.9511719,91.0117188 C62.9511719,92.681649 63.6396416,93.5166016 65.0166016,93.5166016 C65.6367219,93.5166016 66.1872535,93.3273945 66.6682129,92.9489746 C67.1491723,92.5705547 67.5324693,92.0139197 67.8181152,91.2790527 C68.1037612,90.5441858 68.246582,89.7373091 68.246582,88.8583984 C68.246582,88.1064416 68.0683612,87.5278341 67.7119141,87.1225586 C67.355467,86.7172831 66.8427768,86.5146484 66.1738281,86.5146484 L66.1738281,86.5146484 Z M75.3071289,94 L76.3984375,88.9316406 C76.5009771,88.4824196 76.5522461,88.1015641 76.5522461,87.7890625 C76.5522461,87.3984355 76.446046,87.0932628 76.2336426,86.8735352 C76.0212392,86.6538075 75.6928733,86.5439453 75.2485352,86.5439453 C74.7016574,86.5439453 74.1877465,86.7075179 73.7067871,87.034668 C73.2258277,87.361818 72.8205583,87.8207978 72.4909668,88.4116211 C72.1613753,89.0024444 71.9086923,89.7006796 71.7329102,90.5063477 L70.9858398,94 L70.2680664,94 L72.699707,82.6035156 L73.402832,82.6035156 L72.7729492,85.6137695 C72.5581044,86.5903369 72.3969732,87.2714824 72.2895508,87.6572266 L72.3334961,87.6572266 C72.7143574,87.105466 73.1696751,86.6770035 73.6994629,86.3718262 C74.2292507,86.0666489 74.7895478,85.9140625 75.3803711,85.9140625 C75.9858429,85.9140625 76.4545882,86.0727523 76.7866211,86.3901367 C77.118654,86.7075211 77.284668,87.154294 77.284668,87.7304688 C77.284668,88.0722673 77.2260748,88.5165988 77.1088867,89.0634766 L76.0249023,94 L75.3071289,94 Z M82.8803711,85.9140625 C84.0131893,85.9140625 84.6943348,86.4487251 84.9238281,87.5180664 L84.9677734,87.5180664 L85.3999023,86.0385742 L85.9858398,86.0385742 L84.3085938,94 L83.7080078,94 L84.0375977,91.9931641 L83.9936523,91.9931641 C83.583494,92.6865269 83.1269556,93.2187481 82.6240234,93.5898438 C82.1210912,93.9609394 81.5424837,94.1464844 80.8881836,94.1464844 C79.5161064,94.1464844 78.8300781,93.2334076 78.8300781,91.4072266 C78.8300781,90.4453077 79.0131818,89.5273481 79.3793945,88.6533203 C79.7456073,87.7792925 80.2351044,87.1042504 80.8479004,86.6281738 C81.4606964,86.1520972 82.1381799,85.9140625 82.8803711,85.9140625 L82.8803711,85.9140625 Z M81.0566406,93.4873047 C81.4912131,93.4873047 81.9245584,93.335939 82.3566895,93.0332031 C82.7888205,92.7304672 83.1770002,92.3251979 83.5212402,91.8173828 C83.8654802,91.3095678 84.1279288,90.74805 84.3085938,90.1328125 C84.4892587,89.517575 84.5795898,88.9975607 84.5795898,88.5727539 C84.5795898,88.1870098 84.5161139,87.8415543 84.3891602,87.536377 C84.2622064,87.2311996 84.07422,86.9895028 83.8251953,86.8112793 C83.5761706,86.6330557 83.2661151,86.5439453 82.8950195,86.5439453 C82.2895478,86.5439453 81.7426782,86.7441386 81.2543945,87.1445312 C80.7661108,87.5449239 80.3657242,88.1442831 80.0532227,88.942627 C79.7407211,89.7409708 79.5844727,90.5356406 79.5844727,91.3266602 C79.5844727,92.0688514 79.7065417,92.6145002 79.9506836,92.963623 C80.1948254,93.3127459 80.5634741,93.4873047 81.0566406,93.4873047 L81.0566406,93.4873047 Z M91.9770508,94 L93.0683594,88.9316406 C93.170899,88.4824196 93.222168,88.1015641 93.222168,87.7890625 C93.222168,87.3984355 93.1159679,87.0932628 92.9035645,86.8735352 C92.691161,86.6538075 92.3627952,86.5439453 91.918457,86.5439453 C91.3715793,86.5439453 90.8576684,86.7075179 90.376709,87.034668 C89.8957495,87.361818 89.4904802,87.8195771 89.1608887,88.407959 C88.8312972,88.9963408 88.5786142,89.6957967 88.402832,90.5063477 L87.6557617,94 L86.9379883,94 L88.6298828,86.0385742 L89.2304688,86.0385742 L88.9594727,87.6572266 L89.003418,87.6572266 C89.8042032,86.4951114 90.8198181,85.9140625 92.050293,85.9140625 C92.6850618,85.9140625 93.1611312,86.0703109 93.4785156,86.3828125 C93.7959,86.6953141 93.9545898,87.1445283 93.9545898,87.7304688 C93.9545898,88.0722673 93.8959967,88.5165988 93.7788086,89.0634766 L92.6948242,94 L91.9770508,94 Z" id="johan" fill="#96C4DC"></path>
                </g>
            </g>
        </g>
    </g>
</svg>