<?xml version="1.0" encoding="UTF-8" standalone="no"?>
<svg width="58px" height="35px" viewBox="0 0 58 35" version="1.1" xmlns="http://www.w3.org/2000/svg" xmlns:xlink="http://www.w3.org/1999/xlink" xmlns:sketch="http://www.bohemiancoding.com/sketch/ns">
    <!-- Generator: Sketch 3.4.2 (15855) - http://www.bohemiancoding.com/sketch -->
    <title>visa8</title>
    <desc>Created with Sketch.</desc>
    <defs></defs>
    <g id="Def-Desktop" stroke="none" stroke-width="1" fill="none" fill-rule="evenodd" sketch:type="MSPage">
        <g id="Gebruiker-Toevoegen" sketch:type="MSArtboardGroup" transform="translate(-417.000000, -1599.000000)">
            <g id="visa8" sketch:type="MSLayerGroup" transform="translate(417.000000, 1599.000000)">
                <path d="M54.9677397,0.146232877 L2.46086758,0.146232877 C1.10194064,0.146232877 0,1.24817352 0,2.60726027 L0,32.3794749 C0,33.7385616 1.10194064,34.8403425 2.46086758,34.8403425 L54.9677397,34.8403425 C56.3268265,34.8403425 57.4281279,33.7385616 57.4281279,32.3794749 L57.4281279,2.60726027 C57.4281279,1.24817352 56.3268265,0.146232877 54.9677397,0.146232877 L54.9677397,0.146232877 Z" id="Fill-1" fill="#A8D1E1" sketch:type="MSShapeGroup"></path>
                <path d="M37.1338813,23.6325114 C37.205,23.7411872 37.3255023,23.8067123 37.455274,23.8067123 L40.2078082,23.8067123 C40.3669863,23.8067123 40.5100228,23.708105 40.5661187,23.5588356 C40.9044521,22.6667352 41.1218037,22.098105 41.1935616,21.9144749 C41.3759132,21.9144749 42.2211872,21.9157534 43.1275114,21.917032 L43.1788128,21.917032 C44.2200228,21.9183105 45.3262785,21.9194292 45.5910959,21.9194292 C45.669726,22.2540868 45.8632648,23.1393151 45.9431735,23.5044977 C45.98121,23.6806164 46.1373516,23.8060731 46.3176256,23.8060731 L48.7174429,23.8060731 C48.8341096,23.8060731 48.9440639,23.753653 49.0164612,23.6631963 C49.0894977,23.5725799 49.1169863,23.4533562 49.0920548,23.3403653 L46.4825571,11.5164384 C46.443242,11.3409589 46.2877397,11.2155023 46.1079452,11.2155023 L43.763105,11.2155023 C42.8254566,11.2155023 42.2873516,11.5282648 41.9645205,12.2605479 L37.1044749,23.267968 C37.0520548,23.3865525 37.063242,23.5239954 37.1338813,23.6325114 L37.1338813,23.6325114 Z M44.0071461,14.6122603 L44.2393607,15.7002968 L45.0341324,19.3361416 L42.1812329,19.3361416 L44.0071461,14.6122603 Z" id="Fill-2" fill="#FFFFFF" sketch:type="MSShapeGroup"></path>
                <path d="M27.7925571,23.2280137 C28.6984018,23.5457306 29.9625571,23.743105 31.1749315,23.75621 L31.1794064,23.75621 C34.6554338,23.7555708 36.9171689,22.1260731 36.9421005,19.605274 C36.9552055,18.2199772 36.0712557,17.1717352 34.1703881,16.3115982 C33.0072374,15.746484 32.2942922,15.3707534 32.3011644,14.7963699 C32.3011644,14.2795205 32.9528995,13.7562785 34.2052283,13.7562785 C34.235274,13.7556393 34.2709132,13.7556393 34.3063927,13.7556393 C35.3458447,13.7556393 36.0806849,13.9910502 36.5425571,14.1682877 C36.6499543,14.2095205 36.7698174,14.2008904 36.8697032,14.1439954 C36.9702283,14.086621 37.0389498,13.9880137 37.0582877,13.8750228 L37.3684932,12.049589 C37.4004566,11.8610046 37.2892237,11.6780137 37.1076712,11.62 C36.5363242,11.4371689 35.6136986,11.2198174 34.4580594,11.2198174 C31.1811644,11.2198174 28.8801142,12.8680137 28.8620548,15.2265982 C28.8414384,16.9726027 30.5076941,17.9471689 31.7630594,18.5284247 C33.0510274,19.1221461 33.483653,19.5021918 33.4774201,20.034863 C33.4686301,20.8494521 32.4448402,21.2202283 31.4984018,21.2202283 C30.149863,21.2202283 29.4238128,21.0167808 28.3957078,20.5897489 C28.2883105,20.5448402 28.1658904,20.5517123 28.0636073,20.6078082 C27.9611644,20.6640639 27.8900457,20.7639498 27.8707078,20.8788584 L27.5416438,22.8009817 C27.5098402,22.9857306 27.6159589,23.1661644 27.7925571,23.2280137 L27.7925571,23.2280137 Z" id="Fill-3" fill="#FFFFFF" sketch:type="MSShapeGroup"></path>
                <path d="M8.58075342,11.9246119 C10.7777626,12.7150685 12.5750685,13.9697945 13.7780137,15.553105 C13.852968,15.6510731 13.9672374,15.7047717 14.0839041,15.7047717 C14.1376027,15.7047717 14.1919406,15.6934247 14.2430822,15.6697717 C14.4067352,15.5954566 14.4959132,15.4175799 14.4591553,15.2414612 L13.8198858,12.2186758 C13.8186073,12.2118037 13.8166895,12.2055708 13.8147717,12.1993379 C13.5851142,11.3360046 12.8571461,11.2073516 12.329589,11.1860959 L12.314726,11.1860959 L8.7113242,11.179863 L8.71068493,11.179863 C8.52465753,11.179863 8.36484018,11.3141096 8.33303653,11.4977397 C8.30059361,11.68121 8.40543379,11.8610046 8.58075342,11.9246119 L8.58075342,11.9246119 Z" id="Fill-4" fill="#FFFFFF" sketch:type="MSShapeGroup"></path>
                <path d="M21.8825114,23.6649543 C21.9555479,23.7517352 22.0629452,23.8011187 22.1759361,23.8011187 L24.8309817,23.8011187 C25.0176484,23.8011187 25.1774658,23.6668721 25.2086301,23.4821233 L27.2263242,11.6511644 C27.2456621,11.5394521 27.2144977,11.4251826 27.1414612,11.3390411 C27.0684247,11.2528995 26.9616667,11.2030365 26.8486758,11.2030365 L24.1917123,11.2030365 C24.0044064,11.2030365 23.844589,11.3379224 23.8134247,11.522032 L21.7976484,23.3534703 C21.77879,23.4645434 21.8101142,23.5788128 21.8825114,23.6649543 L21.8825114,23.6649543 Z" id="Fill-5" fill="#FFFFFF" sketch:type="MSShapeGroup"></path>
                <path d="M11.2746347,13.9274429 C11.1429452,13.8262785 10.9612329,13.8213242 10.8244292,13.9149772 C10.6877854,14.0084703 10.6265753,14.180274 10.6727626,14.3394521 L13.3591324,23.516484 C13.4065982,23.6799772 13.5569863,23.7923288 13.7268721,23.7923288 L13.7275114,23.7923288 L16.8207763,23.7880137 C16.9737215,23.7880137 17.1116438,23.6962785 17.1722146,23.5557991 L22.2496119,11.748653 C22.3007534,11.6300685 22.2889269,11.4932648 22.2178082,11.3858676 C22.1465297,11.2779909 22.0260274,11.2129452 21.8975342,11.2129452 L21.896895,11.2129452 L19.1037671,11.214863 C18.9465068,11.214863 18.8047489,11.3115525 18.7473744,11.4582648 L15.4797489,19.8056849 L15.1283105,18.533379 C15.1233562,18.5165982 15.1177626,18.5002968 15.1102511,18.4839954 C14.5945205,17.2866438 13.2085845,15.4137443 11.2746347,13.9274429 L11.2746347,13.9274429 Z" id="Fill-6" fill="#FFFFFF" sketch:type="MSShapeGroup"></path>
            </g>
        </g>
    </g>
</svg>